{
  "region_code": "",
  "store_code": "",
  "app_id": "reset",
  "log_data": [
    {
      "action_type": 7,
      "contents_id": "MSI",
      "transaction_id": "cq0ueygy7j5hwylc9svh65hzddp0",
      "page_code": "PG_RESET_002",
      "language_code": "english",
      "measure_datetime": "2021/06/16 04:47:30",
      "reset_log": {}
    },
    {
      "action_type": 1,
      "contents_id": "MSI",
      "transaction_id": "cq0ueygy7j5hwylc9svh65hzddp0",
      "page_code": "PG_RESET_011",
      "language_code": "english",
      "measure_datetime": "2021/06/16 04:47:30",
      "reset_log": {}
    },
    {
      "action_type": 1,
      "contents_id": "MSI",
      "transaction_id": "cq0ueygy7j5hwylc9svh65hzddp0",
      "page_code": "PG_RESET_021",
      "language_code": "english",
      "measure_datetime": "2021/06/16 04:47:39",
      "reset_log": {}
    },
    {
      "action_type": 1,
      "contents_id": "MSI",
      "transaction_id": "cq0ueygy7j5hwylc9svh65hzddp0",
      "page_code": "PG_RESET_031",
      "language_code": "english",
      "measure_datetime": "2021/06/16 04:47:52",
      "reset_log": {}
    },
    {
      "action_type": 1,
      "contents_id": "MSI",
      "transaction_id": "cq0ueygy7j5hwylc9svh65hzddp0",
      "page_code": "PG_RESET_041",
      "language_code": "english",
      "measure_datetime": "2021/06/16 04:48:06",
      "reset_log": {
        "result_id": 1
      }
    },
    {
      "action_type": 14,
      "contents_id": "MSI",
      "transaction_id": "cq0ueygy7j5hwylc9svh65hzddp0",
      "page_code": "PG_RESET_051",
      "language_code": "english",
      "measure_datetime": "2021/06/16 04:48:56",
      "reset_log": {
        "result_id": 1
      }
    },
    {
      "action_type": 1,
      "contents_id": "MSI",
      "transaction_id": "cq0ueygy7j5hwylc9svh65hzddp0",
      "page_code": "PG_RESET_061",
      "language_code": "english",
      "measure_datetime": "2021/06/16 04:49:04",
      "reset_log": {
        "result_id": 1
      }
    },
    {
      "action_type": 1,
      "contents_id": "MSI",
      "transaction_id": "cq0ueygy7j5hwylc9svh65hzddp0",
      "page_code": "PG_RESET_099",
      "language_code": "english",
      "measure_datetime": "2021/06/16 04:49:22",
      "reset_log": {
        "result_id": 1
      }
    },
    {
      "action_type": 98,
      "contents_id": "MSI",
      "transaction_id": "cq0ueygy7j5hwylc9svh65hzddp0",
      "page_code": "PG_RESET_098",
      "language_code": "english",
      "measure_datetime": "2021/06/16 04:49:28",
      "reset_log": {
        "result_id": 1
      }
    },
    {
      "action_type": 7,
      "contents_id": "MSI",
      "transaction_id": "dhka0uclus93od7y64t6gi369g",
      "page_code": "PG_RESET_002",
      "language_code": "english",
      "measure_datetime": "2021/06/16 05:24:41",
      "reset_log": {}
    },
    {
      "action_type": 1,
      "contents_id": "MSI",
      "transaction_id": "dhka0uclus93od7y64t6gi369g",
      "page_code": "PG_RESET_011",
      "language_code": "english",
      "measure_datetime": "2021/06/16 05:24:42",
      "reset_log": {}
    },
    {
      "action_type": 1,
      "contents_id": "MSI",
      "transaction_id": "dhka0uclus93od7y64t6gi369g",
      "page_code": "PG_RESET_021",
      "language_code": "english",
      "measure_datetime": "2021/06/16 05:24:50",
      "reset_log": {}
    },
    {
      "action_type": 1,
      "contents_id": "MSI",
      "transaction_id": "dhka0uclus93od7y64t6gi369g",
      "page_code": "PG_RESET_031",
      "language_code": "english",
      "measure_datetime": "2021/06/16 05:25:03",
      "reset_log": {}
    },
    {
      "action_type": 1,
      "contents_id": "MSI",
      "transaction_id": "dhka0uclus93od7y64t6gi369g",
      "page_code": "PG_RESET_041",
      "language_code": "english",
      "measure_datetime": "2021/06/16 05:25:17",
      "reset_log": {
        "result_id": 2
      }
    },
    {
      "action_type": 14,
      "contents_id": "MSI",
      "transaction_id": "dhka0uclus93od7y64t6gi369g",
      "page_code": "PG_RESET_051",
      "language_code": "english",
      "measure_datetime": "2021/06/16 05:26:07",
      "reset_log": {
        "result_id": 2
      }
    },
    {
      "action_type": 1,
      "contents_id": "MSI",
      "transaction_id": "dhka0uclus93od7y64t6gi369g",
      "page_code": "PG_RESET_061",
      "language_code": "english",
      "measure_datetime": "2021/06/16 05:26:15",
      "reset_log": {
        "result_id": 2
      }
    },
    {
      "action_type": 1,
      "contents_id": "MSI",
      "transaction_id": "dhka0uclus93od7y64t6gi369g",
      "page_code": "PG_RESET_099",
      "language_code": "english",
      "measure_datetime": "2021/06/16 05:26:33",
      "reset_log": {
        "result_id": 2
      }
    },
    {
      "action_type": 98,
      "contents_id": "MSI",
      "transaction_id": "dhka0uclus93od7y64t6gi369g",
      "page_code": "PG_RESET_098",
      "language_code": "english",
      "measure_datetime": "2021/06/16 05:26:39",
      "reset_log": {
        "result_id": 2
      }
    },
    {
      "action_type": 7,
      "contents_id": "MSI",
      "transaction_id": "5idb8n1l9c5txvbr2oto0h037nb",
      "page_code": "PG_RESET_002",
      "language_code": "english",
      "measure_datetime": "2021/06/16 05:27:03",
      "reset_log": {}
    },
    {
      "action_type": 1,
      "contents_id": "MSI",
      "transaction_id": "5idb8n1l9c5txvbr2oto0h037nb",
      "page_code": "PG_RESET_011",
      "language_code": "english",
      "measure_datetime": "2021/06/16 05:27:03",
      "reset_log": {}
    },
    {
      "action_type": 1,
      "contents_id": "MSI",
      "transaction_id": "5idb8n1l9c5txvbr2oto0h037nb",
      "page_code": "PG_RESET_021",
      "language_code": "english",
      "measure_datetime": "2021/06/16 05:27:12",
      "reset_log": {}
    },
    {
      "action_type": 1,
      "contents_id": "MSI",
      "transaction_id": "5idb8n1l9c5txvbr2oto0h037nb",
      "page_code": "PG_RESET_031",
      "language_code": "english",
      "measure_datetime": "2021/06/16 05:27:25",
      "reset_log": {}
    },
    {
      "action_type": 1,
      "contents_id": "MSI",
      "transaction_id": "5idb8n1l9c5txvbr2oto0h037nb",
      "page_code": "PG_RESET_041",
      "language_code": "english",
      "measure_datetime": "2021/06/16 05:27:39",
      "reset_log": {
        "result_id": 3
      }
    },
    {
      "action_type": 14,
      "contents_id": "MSI",
      "transaction_id": "5idb8n1l9c5txvbr2oto0h037nb",
      "page_code": "PG_RESET_051",
      "language_code": "english",
      "measure_datetime": "2021/06/16 05:28:29",
      "reset_log": {
        "result_id": 3
      }
    },
    {
      "action_type": 1,
      "contents_id": "MSI",
      "transaction_id": "5idb8n1l9c5txvbr2oto0h037nb",
      "page_code": "PG_RESET_061",
      "language_code": "english",
      "measure_datetime": "2021/06/16 05:28:37",
      "reset_log": {
        "result_id": 3
      }
    },
    {
      "action_type": 1,
      "contents_id": "MSI",
      "transaction_id": "5idb8n1l9c5txvbr2oto0h037nb",
      "page_code": "PG_RESET_099",
      "language_code": "english",
      "measure_datetime": "2021/06/16 05:28:55",
      "reset_log": {
        "result_id": 3
      }
    },
    {
      "action_type": 98,
      "contents_id": "MSI",
      "transaction_id": "5idb8n1l9c5txvbr2oto0h037nb",
      "page_code": "PG_RESET_098",
      "language_code": "english",
      "measure_datetime": "2021/06/16 05:29:01",
      "reset_log": {
        "result_id": 3
      }
    },
    {
      "action_type": 7,
      "contents_id": "MSI",
      "transaction_id": "id576h94q4xl2sz3ke1ro68otr",
      "page_code": "PG_RESET_002",
      "language_code": "english",
      "measure_datetime": "2021/06/16 05:43:01",
      "reset_log": {}
    },
    {
      "action_type": 1,
      "contents_id": "MSI",
      "transaction_id": "id576h94q4xl2sz3ke1ro68otr",
      "page_code": "PG_RESET_011",
      "language_code": "english",
      "measure_datetime": "2021/06/16 05:43:01",
      "reset_log": {}
    },
    {
      "action_type": 1,
      "contents_id": "MSI",
      "transaction_id": "id576h94q4xl2sz3ke1ro68otr",
      "page_code": "PG_RESET_021",
      "language_code": "english",
      "measure_datetime": "2021/06/16 05:43:10",
      "reset_log": {}
    },
    {
      "action_type": 1,
      "contents_id": "MSI",
      "transaction_id": "id576h94q4xl2sz3ke1ro68otr",
      "page_code": "PG_RESET_031",
      "language_code": "english",
      "measure_datetime": "2021/06/16 05:43:23",
      "reset_log": {}
    },
    {
      "action_type": 1,
      "contents_id": "MSI",
      "transaction_id": "id576h94q4xl2sz3ke1ro68otr",
      "page_code": "PG_RESET_041",
      "language_code": "english",
      "measure_datetime": "2021/06/16 05:43:37",
      "reset_log": {
        "result_id": 2
      }
    },
    {
      "action_type": 14,
      "contents_id": "MSI",
      "transaction_id": "id576h94q4xl2sz3ke1ro68otr",
      "page_code": "PG_RESET_051",
      "language_code": "english",
      "measure_datetime": "2021/06/16 05:44:29",
      "reset_log": {
        "result_id": 2
      }
    },
    {
      "action_type": 1,
      "contents_id": "MSI",
      "transaction_id": "id576h94q4xl2sz3ke1ro68otr",
      "page_code": "PG_RESET_061",
      "language_code": "english",
      "measure_datetime": "2021/06/16 05:44:39",
      "reset_log": {
        "result_id": 2
      }
    },
    {
      "action_type": 1,
      "contents_id": "MSI",
      "transaction_id": "id576h94q4xl2sz3ke1ro68otr",
      "page_code": "PG_RESET_099",
      "language_code": "english",
      "measure_datetime": "2021/06/16 05:44:58",
      "reset_log": {
        "result_id": 2
      }
    },
    {
      "action_type": 98,
      "contents_id": "MSI",
      "transaction_id": "id576h94q4xl2sz3ke1ro68otr",
      "page_code": "PG_RESET_098",
      "language_code": "english",
      "measure_datetime": "2021/06/16 05:45:04",
      "reset_log": {
        "result_id": 2
      }
    },
    {
      "action_type": 7,
      "contents_id": "MSI",
      "transaction_id": "w1decce58oztuvtqyiidn2vmf",
      "page_code": "PG_RESET_002",
      "language_code": "english",
      "measure_datetime": "2021/06/16 05:47:08",
      "reset_log": {}
    },
    {
      "action_type": 1,
      "contents_id": "MSI",
      "transaction_id": "w1decce58oztuvtqyiidn2vmf",
      "page_code": "PG_RESET_011",
      "language_code": "english",
      "measure_datetime": "2021/06/16 05:47:09",
      "reset_log": {}
    },
    {
      "action_type": 1,
      "contents_id": "MSI",
      "transaction_id": "w1decce58oztuvtqyiidn2vmf",
      "page_code": "PG_RESET_021",
      "language_code": "english",
      "measure_datetime": "2021/06/16 05:47:17",
      "reset_log": {}
    },
    {
      "action_type": 1,
      "contents_id": "MSI",
      "transaction_id": "w1decce58oztuvtqyiidn2vmf",
      "page_code": "PG_RESET_031",
      "language_code": "english",
      "measure_datetime": "2021/06/16 05:47:31",
      "reset_log": {}
    },
    {
      "action_type": 1,
      "contents_id": "MSI",
      "transaction_id": "w1decce58oztuvtqyiidn2vmf",
      "page_code": "PG_RESET_041",
      "language_code": "english",
      "measure_datetime": "2021/06/16 05:47:45",
      "reset_log": {
        "result_id": 2
      }
    },
    {
      "action_type": 14,
      "contents_id": "MSI",
      "transaction_id": "w1decce58oztuvtqyiidn2vmf",
      "page_code": "PG_RESET_051",
      "language_code": "english",
      "measure_datetime": "2021/06/16 05:48:35",
      "reset_log": {
        "result_id": 2
      }
    },
    {
      "action_type": 1,
      "contents_id": "MSI",
      "transaction_id": "w1decce58oztuvtqyiidn2vmf",
      "page_code": "PG_RESET_061",
      "language_code": "english",
      "measure_datetime": "2021/06/16 05:48:44",
      "reset_log": {
        "result_id": 2
      }
    },
    {
      "action_type": 1,
      "contents_id": "MSI",
      "transaction_id": "w1decce58oztuvtqyiidn2vmf",
      "page_code": "PG_RESET_099",
      "language_code": "english",
      "measure_datetime": "2021/06/16 05:49:02",
      "reset_log": {
        "result_id": 2
      }
    },
    {
      "action_type": 98,
      "contents_id": "MSI",
      "transaction_id": "w1decce58oztuvtqyiidn2vmf",
      "page_code": "PG_RESET_098",
      "language_code": "english",
      "measure_datetime": "2021/06/16 05:49:08",
      "reset_log": {
        "result_id": 2
      }
    },
    {
      "action_type": 7,
      "contents_id": "MSI",
      "transaction_id": "xu59nrj0mna481bvt90z4bhb2hf29",
      "page_code": "PG_RESET_002",
      "language_code": "english",
      "measure_datetime": "2021/06/16 05:53:22",
      "reset_log": {}
    },
    {
      "action_type": 1,
      "contents_id": "MSI",
      "transaction_id": "xu59nrj0mna481bvt90z4bhb2hf29",
      "page_code": "PG_RESET_011",
      "language_code": "english",
      "measure_datetime": "2021/06/16 05:53:22",
      "reset_log": {}
    },
    {
      "action_type": 1,
      "contents_id": "MSI",
      "transaction_id": "xu59nrj0mna481bvt90z4bhb2hf29",
      "page_code": "PG_RESET_021",
      "language_code": "english",
      "measure_datetime": "2021/06/16 05:53:31",
      "reset_log": {}
    },
    {
      "action_type": 1,
      "contents_id": "MSI",
      "transaction_id": "xu59nrj0mna481bvt90z4bhb2hf29",
      "page_code": "PG_RESET_031",
      "language_code": "english",
      "measure_datetime": "2021/06/16 05:53:44",
      "reset_log": {}
    },
    {
      "action_type": 1,
      "contents_id": "MSI",
      "transaction_id": "xu59nrj0mna481bvt90z4bhb2hf29",
      "page_code": "PG_RESET_041",
      "language_code": "english",
      "measure_datetime": "2021/06/16 05:53:58",
      "reset_log": {
        "result_id": 1
      }
    },
    {
      "action_type": 14,
      "contents_id": "MSI",
      "transaction_id": "xu59nrj0mna481bvt90z4bhb2hf29",
      "page_code": "PG_RESET_051",
      "language_code": "english",
      "measure_datetime": "2021/06/16 05:54:49",
      "reset_log": {
        "result_id": 1
      }
    },
    {
      "action_type": 1,
      "contents_id": "MSI",
      "transaction_id": "xu59nrj0mna481bvt90z4bhb2hf29",
      "page_code": "PG_RESET_061",
      "language_code": "english",
      "measure_datetime": "2021/06/16 05:54:57",
      "reset_log": {
        "result_id": 1
      }
    },
    {
      "action_type": 1,
      "contents_id": "MSI",
      "transaction_id": "xu59nrj0mna481bvt90z4bhb2hf29",
      "page_code": "PG_RESET_099",
      "language_code": "english",
      "measure_datetime": "2021/06/16 05:55:15",
      "reset_log": {
        "result_id": 1
      }
    },
    {
      "action_type": 98,
      "contents_id": "MSI",
      "transaction_id": "xu59nrj0mna481bvt90z4bhb2hf29",
      "page_code": "PG_RESET_098",
      "language_code": "english",
      "measure_datetime": "2021/06/16 05:55:21",
      "reset_log": {
        "result_id": 1
      }
    },
    {
      "action_type": 7,
      "contents_id": "MSI",
      "transaction_id": "ff5bfunselobta00b44zgpntn",
      "page_code": "PG_RESET_002",
      "language_code": "english",
      "measure_datetime": "2021/06/16 06:02:15",
      "reset_log": {}
    },
    {
      "action_type": 1,
      "contents_id": "MSI",
      "transaction_id": "ff5bfunselobta00b44zgpntn",
      "page_code": "PG_RESET_011",
      "language_code": "english",
      "measure_datetime": "2021/06/16 06:02:15",
      "reset_log": {}
    },
    {
      "action_type": 1,
      "contents_id": "MSI",
      "transaction_id": "ff5bfunselobta00b44zgpntn",
      "page_code": "PG_RESET_021",
      "language_code": "english",
      "measure_datetime": "2021/06/16 06:02:24",
      "reset_log": {}
    },
    {
      "action_type": 1,
      "contents_id": "MSI",
      "transaction_id": "ff5bfunselobta00b44zgpntn",
      "page_code": "PG_RESET_031",
      "language_code": "english",
      "measure_datetime": "2021/06/16 06:02:37",
      "reset_log": {}
    },
    {
      "action_type": 1,
      "contents_id": "MSI",
      "transaction_id": "ff5bfunselobta00b44zgpntn",
      "page_code": "PG_RESET_041",
      "language_code": "english",
      "measure_datetime": "2021/06/16 06:02:51",
      "reset_log": {
        "result_id": 1
      }
    },
    {
      "action_type": 14,
      "contents_id": "MSI",
      "transaction_id": "ff5bfunselobta00b44zgpntn",
      "page_code": "PG_RESET_051",
      "language_code": "english",
      "measure_datetime": "2021/06/16 06:03:42",
      "reset_log": {
        "result_id": 1
      }
    },
    {
      "action_type": 1,
      "contents_id": "MSI",
      "transaction_id": "ff5bfunselobta00b44zgpntn",
      "page_code": "PG_RESET_061",
      "language_code": "english",
      "measure_datetime": "2021/06/16 06:03:50",
      "reset_log": {
        "result_id": 1
      }
    },
    {
      "action_type": 1,
      "contents_id": "MSI",
      "transaction_id": "ff5bfunselobta00b44zgpntn",
      "page_code": "PG_RESET_099",
      "language_code": "english",
      "measure_datetime": "2021/06/16 06:04:08",
      "reset_log": {
        "result_id": 1
      }
    },
    {
      "action_type": 98,
      "contents_id": "MSI",
      "transaction_id": "ff5bfunselobta00b44zgpntn",
      "page_code": "PG_RESET_098",
      "language_code": "english",
      "measure_datetime": "2021/06/16 06:04:14",
      "reset_log": {
        "result_id": 1
      }
    },
    {
      "action_type": 7,
      "contents_id": "MSI",
      "transaction_id": "71e4ul1uu6cu463wsxrczaz76j",
      "page_code": "PG_RESET_002",
      "language_code": "english",
      "measure_datetime": "2021/06/16 06:15:47",
      "reset_log": {}
    },
    {
      "action_type": 1,
      "contents_id": "MSI",
      "transaction_id": "71e4ul1uu6cu463wsxrczaz76j",
      "page_code": "PG_RESET_011",
      "language_code": "english",
      "measure_datetime": "2021/06/16 06:15:47",
      "reset_log": {}
    },
    {
      "action_type": 1,
      "contents_id": "MSI",
      "transaction_id": "71e4ul1uu6cu463wsxrczaz76j",
      "page_code": "PG_RESET_021",
      "language_code": "english",
      "measure_datetime": "2021/06/16 06:15:56",
      "reset_log": {}
    },
    {
      "action_type": 1,
      "contents_id": "MSI",
      "transaction_id": "71e4ul1uu6cu463wsxrczaz76j",
      "page_code": "PG_RESET_031",
      "language_code": "english",
      "measure_datetime": "2021/06/16 06:16:09",
      "reset_log": {}
    },
    {
      "action_type": 1,
      "contents_id": "MSI",
      "transaction_id": "71e4ul1uu6cu463wsxrczaz76j",
      "page_code": "PG_RESET_041",
      "language_code": "english",
      "measure_datetime": "2021/06/16 06:16:24",
      "reset_log": {
        "result_id": 3
      }
    },
    {
      "action_type": 14,
      "contents_id": "MSI",
      "transaction_id": "71e4ul1uu6cu463wsxrczaz76j",
      "page_code": "PG_RESET_051",
      "language_code": "english",
      "measure_datetime": "2021/06/16 06:17:14",
      "reset_log": {
        "result_id": 3
      }
    },
    {
      "action_type": 1,
      "contents_id": "MSI",
      "transaction_id": "71e4ul1uu6cu463wsxrczaz76j",
      "page_code": "PG_RESET_061",
      "language_code": "english",
      "measure_datetime": "2021/06/16 06:17:22",
      "reset_log": {
        "result_id": 3
      }
    },
    {
      "action_type": 1,
      "contents_id": "MSI",
      "transaction_id": "71e4ul1uu6cu463wsxrczaz76j",
      "page_code": "PG_RESET_099",
      "language_code": "english",
      "measure_datetime": "2021/06/16 06:17:41",
      "reset_log": {
        "result_id": 3
      }
    },
    {
      "action_type": 98,
      "contents_id": "MSI",
      "transaction_id": "71e4ul1uu6cu463wsxrczaz76j",
      "page_code": "PG_RESET_098",
      "language_code": "english",
      "measure_datetime": "2021/06/16 06:17:47",
      "reset_log": {
        "result_id": 3
      }
    },
    {
      "action_type": 7,
      "contents_id": "MSI",
      "transaction_id": "lhrxuw2f0rsb2gwkaft6wa2jqidr3",
      "page_code": "PG_RESET_002",
      "language_code": "simplified_chinese",
      "measure_datetime": "2021/06/16 07:10:36",
      "reset_log": {}
    },
    {
      "action_type": 1,
      "contents_id": "MSI",
      "transaction_id": "lhrxuw2f0rsb2gwkaft6wa2jqidr3",
      "page_code": "PG_RESET_011",
      "language_code": "simplified_chinese",
      "measure_datetime": "2021/06/16 07:10:36",
      "reset_log": {}
    },
    {
      "action_type": 1,
      "contents_id": "MSI",
      "transaction_id": "lhrxuw2f0rsb2gwkaft6wa2jqidr3",
      "page_code": "PG_RESET_021",
      "language_code": "simplified_chinese",
      "measure_datetime": "2021/06/16 07:10:45",
      "reset_log": {}
    },
    {
      "action_type": 1,
      "contents_id": "MSI",
      "transaction_id": "lhrxuw2f0rsb2gwkaft6wa2jqidr3",
      "page_code": "PG_RESET_031",
      "language_code": "simplified_chinese",
      "measure_datetime": "2021/06/16 07:10:58",
      "reset_log": {}
    },
    {
      "action_type": 1,
      "contents_id": "MSI",
      "transaction_id": "lhrxuw2f0rsb2gwkaft6wa2jqidr3",
      "page_code": "PG_RESET_041",
      "language_code": "simplified_chinese",
      "measure_datetime": "2021/06/16 07:11:12",
      "reset_log": {
        "result_id": 3
      }
    },
    {
      "action_type": 14,
      "contents_id": "MSI",
      "transaction_id": "lhrxuw2f0rsb2gwkaft6wa2jqidr3",
      "page_code": "PG_RESET_051",
      "language_code": "simplified_chinese",
      "measure_datetime": "2021/06/16 07:12:03",
      "reset_log": {
        "result_id": 3
      }
    },
    {
      "action_type": 1,
      "contents_id": "MSI",
      "transaction_id": "lhrxuw2f0rsb2gwkaft6wa2jqidr3",
      "page_code": "PG_RESET_061",
      "language_code": "simplified_chinese",
      "measure_datetime": "2021/06/16 07:12:11",
      "reset_log": {
        "result_id": 3
      }
    },
    {
      "action_type": 1,
      "contents_id": "MSI",
      "transaction_id": "lhrxuw2f0rsb2gwkaft6wa2jqidr3",
      "page_code": "PG_RESET_099",
      "language_code": "simplified_chinese",
      "measure_datetime": "2021/06/16 07:12:30",
      "reset_log": {
        "result_id": 3
      }
    },
    {
      "action_type": 98,
      "contents_id": "MSI",
      "transaction_id": "lhrxuw2f0rsb2gwkaft6wa2jqidr3",
      "page_code": "PG_RESET_098",
      "language_code": "simplified_chinese",
      "measure_datetime": "2021/06/16 07:12:36",
      "reset_log": {
        "result_id": 3
      }
    },
    {
      "action_type": 7,
      "contents_id": "MSI",
      "transaction_id": "0zbstcrdmxcbsb5zbfq5qjp679",
      "page_code": "PG_RESET_002",
      "language_code": "simplified_chinese",
      "measure_datetime": "2021/06/16 07:33:38",
      "reset_log": {}
    },
    {
      "action_type": 1,
      "contents_id": "MSI",
      "transaction_id": "0zbstcrdmxcbsb5zbfq5qjp679",
      "page_code": "PG_RESET_011",
      "language_code": "simplified_chinese",
      "measure_datetime": "2021/06/16 07:33:38",
      "reset_log": {}
    },
    {
      "action_type": 1,
      "contents_id": "MSI",
      "transaction_id": "0zbstcrdmxcbsb5zbfq5qjp679",
      "page_code": "PG_RESET_021",
      "language_code": "simplified_chinese",
      "measure_datetime": "2021/06/16 07:33:47",
      "reset_log": {}
    },
    {
      "action_type": 1,
      "contents_id": "MSI",
      "transaction_id": "0zbstcrdmxcbsb5zbfq5qjp679",
      "page_code": "PG_RESET_031",
      "language_code": "simplified_chinese",
      "measure_datetime": "2021/06/16 07:34:00",
      "reset_log": {}
    },
    {
      "action_type": 1,
      "contents_id": "MSI",
      "transaction_id": "0zbstcrdmxcbsb5zbfq5qjp679",
      "page_code": "PG_RESET_041",
      "language_code": "simplified_chinese",
      "measure_datetime": "2021/06/16 07:34:14",
      "reset_log": {
        "result_id": 1
      }
    },
    {
      "action_type": 14,
      "contents_id": "MSI",
      "transaction_id": "0zbstcrdmxcbsb5zbfq5qjp679",
      "page_code": "PG_RESET_051",
      "language_code": "simplified_chinese",
      "measure_datetime": "2021/06/16 07:35:06",
      "reset_log": {
        "result_id": 1
      }
    },
    {
      "action_type": 1,
      "contents_id": "MSI",
      "transaction_id": "0zbstcrdmxcbsb5zbfq5qjp679",
      "page_code": "PG_RESET_061",
      "language_code": "simplified_chinese",
      "measure_datetime": "2021/06/16 07:35:14",
      "reset_log": {
        "result_id": 1
      }
    },
    {
      "action_type": 1,
      "contents_id": "MSI",
      "transaction_id": "0zbstcrdmxcbsb5zbfq5qjp679",
      "page_code": "PG_RESET_099",
      "language_code": "simplified_chinese",
      "measure_datetime": "2021/06/16 07:35:32",
      "reset_log": {
        "result_id": 1
      }
    },
    {
      "action_type": 98,
      "contents_id": "MSI",
      "transaction_id": "0zbstcrdmxcbsb5zbfq5qjp679",
      "page_code": "PG_RESET_098",
      "language_code": "simplified_chinese",
      "measure_datetime": "2021/06/16 07:35:38",
      "reset_log": {
        "result_id": 1
      }
    },
    {
      "action_type": 7,
      "contents_id": "MSI",
      "transaction_id": "6us7xzrktfok0iy1t9hndkjzchf",
      "page_code": "PG_RESET_002",
      "language_code": "english",
      "measure_datetime": "2021/06/16 07:36:04",
      "reset_log": {}
    },
    {
      "action_type": 1,
      "contents_id": "MSI",
      "transaction_id": "6us7xzrktfok0iy1t9hndkjzchf",
      "page_code": "PG_RESET_011",
      "language_code": "english",
      "measure_datetime": "2021/06/16 07:36:04",
      "reset_log": {}
    },
    {
      "action_type": 1,
      "contents_id": "MSI",
      "transaction_id": "6us7xzrktfok0iy1t9hndkjzchf",
      "page_code": "PG_RESET_021",
      "language_code": "english",
      "measure_datetime": "2021/06/16 07:36:13",
      "reset_log": {}
    },
    {
      "action_type": 1,
      "contents_id": "MSI",
      "transaction_id": "6us7xzrktfok0iy1t9hndkjzchf",
      "page_code": "PG_RESET_031",
      "language_code": "english",
      "measure_datetime": "2021/06/16 07:36:26",
      "reset_log": {}
    },
    {
      "action_type": 1,
      "contents_id": "MSI",
      "transaction_id": "6us7xzrktfok0iy1t9hndkjzchf",
      "page_code": "PG_RESET_041",
      "language_code": "english",
      "measure_datetime": "2021/06/16 07:36:40",
      "reset_log": {
        "result_id": 1
      }
    },
    {
      "action_type": 14,
      "contents_id": "MSI",
      "transaction_id": "6us7xzrktfok0iy1t9hndkjzchf",
      "page_code": "PG_RESET_051",
      "language_code": "english",
      "measure_datetime": "2021/06/16 07:37:32",
      "reset_log": {
        "result_id": 1
      }
    },
    {
      "action_type": 1,
      "contents_id": "MSI",
      "transaction_id": "6us7xzrktfok0iy1t9hndkjzchf",
      "page_code": "PG_RESET_061",
      "language_code": "english",
      "measure_datetime": "2021/06/16 07:37:40",
      "reset_log": {
        "result_id": 1
      }
    },
    {
      "action_type": 1,
      "contents_id": "MSI",
      "transaction_id": "6us7xzrktfok0iy1t9hndkjzchf",
      "page_code": "PG_RESET_099",
      "language_code": "english",
      "measure_datetime": "2021/06/16 07:37:58",
      "reset_log": {
        "result_id": 1
      }
    },
    {
      "action_type": 98,
      "contents_id": "MSI",
      "transaction_id": "6us7xzrktfok0iy1t9hndkjzchf",
      "page_code": "PG_RESET_098",
      "language_code": "english",
      "measure_datetime": "2021/06/16 07:38:04",
      "reset_log": {
        "result_id": 1
      }
    },
    {
      "action_type": 7,
      "contents_id": "MSI",
      "transaction_id": "aqry7l6cbedgh5qmfp7r50ytrpm9",
      "page_code": "PG_RESET_002",
      "language_code": "simplified_chinese",
      "measure_datetime": "2021/06/16 07:40:35",
      "reset_log": {}
    },
    {
      "action_type": 1,
      "contents_id": "MSI",
      "transaction_id": "aqry7l6cbedgh5qmfp7r50ytrpm9",
      "page_code": "PG_RESET_011",
      "language_code": "simplified_chinese",
      "measure_datetime": "2021/06/16 07:40:35",
      "reset_log": {}
    },
    {
      "action_type": 1,
      "contents_id": "MSI",
      "transaction_id": "aqry7l6cbedgh5qmfp7r50ytrpm9",
      "page_code": "PG_RESET_021",
      "language_code": "simplified_chinese",
      "measure_datetime": "2021/06/16 07:40:44",
      "reset_log": {}
    },
    {
      "action_type": 1,
      "contents_id": "MSI",
      "transaction_id": "aqry7l6cbedgh5qmfp7r50ytrpm9",
      "page_code": "PG_RESET_031",
      "language_code": "simplified_chinese",
      "measure_datetime": "2021/06/16 07:40:57",
      "reset_log": {}
    },
    {
      "action_type": 1,
      "contents_id": "MSI",
      "transaction_id": "aqry7l6cbedgh5qmfp7r50ytrpm9",
      "page_code": "PG_RESET_041",
      "language_code": "simplified_chinese",
      "measure_datetime": "2021/06/16 07:41:11",
      "reset_log": {
        "result_id": 2
      }
    },
    {
      "action_type": 14,
      "contents_id": "MSI",
      "transaction_id": "aqry7l6cbedgh5qmfp7r50ytrpm9",
      "page_code": "PG_RESET_051",
      "language_code": "simplified_chinese",
      "measure_datetime": "2021/06/16 07:42:02",
      "reset_log": {
        "result_id": 2
      }
    },
    {
      "action_type": 1,
      "contents_id": "MSI",
      "transaction_id": "aqry7l6cbedgh5qmfp7r50ytrpm9",
      "page_code": "PG_RESET_061",
      "language_code": "simplified_chinese",
      "measure_datetime": "2021/06/16 07:42:11",
      "reset_log": {
        "result_id": 2
      }
    },
    {
      "action_type": 1,
      "contents_id": "MSI",
      "transaction_id": "aqry7l6cbedgh5qmfp7r50ytrpm9",
      "page_code": "PG_RESET_099",
      "language_code": "simplified_chinese",
      "measure_datetime": "2021/06/16 07:42:29",
      "reset_log": {
        "result_id": 2
      }
    },
    {
      "action_type": 98,
      "contents_id": "MSI",
      "transaction_id": "aqry7l6cbedgh5qmfp7r50ytrpm9",
      "page_code": "PG_RESET_098",
      "language_code": "simplified_chinese",
      "measure_datetime": "2021/06/16 07:42:35",
      "reset_log": {
        "result_id": 2
      }
    },
    {
      "action_type": 7,
      "contents_id": "MSI",
      "transaction_id": "dd45v0m6s6zpxosys4j10afsf8qq6",
      "page_code": "PG_RESET_002",
      "language_code": "traditional_chinese",
      "measure_datetime": "2021/06/16 07:44:52",
      "reset_log": {}
    },
    {
      "action_type": 1,
      "contents_id": "MSI",
      "transaction_id": "dd45v0m6s6zpxosys4j10afsf8qq6",
      "page_code": "PG_RESET_011",
      "language_code": "traditional_chinese",
      "measure_datetime": "2021/06/16 07:44:52",
      "reset_log": {}
    },
    {
      "action_type": 1,
      "contents_id": "MSI",
      "transaction_id": "dd45v0m6s6zpxosys4j10afsf8qq6",
      "page_code": "PG_RESET_021",
      "language_code": "traditional_chinese",
      "measure_datetime": "2021/06/16 07:45:01",
      "reset_log": {}
    },
    {
      "action_type": 1,
      "contents_id": "MSI",
      "transaction_id": "dd45v0m6s6zpxosys4j10afsf8qq6",
      "page_code": "PG_RESET_031",
      "language_code": "traditional_chinese",
      "measure_datetime": "2021/06/16 07:45:14",
      "reset_log": {}
    },
    {
      "action_type": 1,
      "contents_id": "MSI",
      "transaction_id": "dd45v0m6s6zpxosys4j10afsf8qq6",
      "page_code": "PG_RESET_041",
      "language_code": "traditional_chinese",
      "measure_datetime": "2021/06/16 07:45:29",
      "reset_log": {
        "result_id": 1
      }
    },
    {
      "action_type": 14,
      "contents_id": "MSI",
      "transaction_id": "dd45v0m6s6zpxosys4j10afsf8qq6",
      "page_code": "PG_RESET_051",
      "language_code": "traditional_chinese",
      "measure_datetime": "2021/06/16 07:46:20",
      "reset_log": {
        "result_id": 1
      }
    },
    {
      "action_type": 1,
      "contents_id": "MSI",
      "transaction_id": "dd45v0m6s6zpxosys4j10afsf8qq6",
      "page_code": "PG_RESET_061",
      "language_code": "traditional_chinese",
      "measure_datetime": "2021/06/16 07:46:28",
      "reset_log": {
        "result_id": 1
      }
    },
    {
      "action_type": 1,
      "contents_id": "MSI",
      "transaction_id": "dd45v0m6s6zpxosys4j10afsf8qq6",
      "page_code": "PG_RESET_099",
      "language_code": "traditional_chinese",
      "measure_datetime": "2021/06/16 07:46:47",
      "reset_log": {
        "result_id": 1
      }
    },
    {
      "action_type": 98,
      "contents_id": "MSI",
      "transaction_id": "dd45v0m6s6zpxosys4j10afsf8qq6",
      "page_code": "PG_RESET_098",
      "language_code": "traditional_chinese",
      "measure_datetime": "2021/06/16 07:46:53",
      "reset_log": {
        "result_id": 1
      }
    },
    {
      "action_type": 7,
      "contents_id": "MSI",
      "transaction_id": "eeucqczuryoyzywn7ppp8jmky2k",
      "page_code": "PG_RESET_002",
      "language_code": "traditional_chinese",
      "measure_datetime": "2021/06/16 08:07:35",
      "reset_log": {}
    },
    {
      "action_type": 1,
      "contents_id": "MSI",
      "transaction_id": "eeucqczuryoyzywn7ppp8jmky2k",
      "page_code": "PG_RESET_011",
      "language_code": "traditional_chinese",
      "measure_datetime": "2021/06/16 08:07:36",
      "reset_log": {}
    },
    {
      "action_type": 1,
      "contents_id": "MSI",
      "transaction_id": "eeucqczuryoyzywn7ppp8jmky2k",
      "page_code": "PG_RESET_021",
      "language_code": "traditional_chinese",
      "measure_datetime": "2021/06/16 08:07:44",
      "reset_log": {}
    },
    {
      "action_type": 1,
      "contents_id": "MSI",
      "transaction_id": "eeucqczuryoyzywn7ppp8jmky2k",
      "page_code": "PG_RESET_031",
      "language_code": "traditional_chinese",
      "measure_datetime": "2021/06/16 08:07:57",
      "reset_log": {}
    },
    {
      "action_type": 1,
      "contents_id": "MSI",
      "transaction_id": "eeucqczuryoyzywn7ppp8jmky2k",
      "page_code": "PG_RESET_041",
      "language_code": "traditional_chinese",
      "measure_datetime": "2021/06/16 08:08:12",
      "reset_log": {
        "result_id": 1
      }
    },
    {
      "action_type": 14,
      "contents_id": "MSI",
      "transaction_id": "eeucqczuryoyzywn7ppp8jmky2k",
      "page_code": "PG_RESET_051",
      "language_code": "traditional_chinese",
      "measure_datetime": "2021/06/16 08:09:02",
      "reset_log": {
        "result_id": 1
      }
    },
    {
      "action_type": 1,
      "contents_id": "MSI",
      "transaction_id": "eeucqczuryoyzywn7ppp8jmky2k",
      "page_code": "PG_RESET_061",
      "language_code": "traditional_chinese",
      "measure_datetime": "2021/06/16 08:09:10",
      "reset_log": {
        "result_id": 1
      }
    },
    {
      "action_type": 1,
      "contents_id": "MSI",
      "transaction_id": "eeucqczuryoyzywn7ppp8jmky2k",
      "page_code": "PG_RESET_099",
      "language_code": "traditional_chinese",
      "measure_datetime": "2021/06/16 08:09:29",
      "reset_log": {
        "result_id": 1
      }
    },
    {
      "action_type": 98,
      "contents_id": "MSI",
      "transaction_id": "eeucqczuryoyzywn7ppp8jmky2k",
      "page_code": "PG_RESET_098",
      "language_code": "traditional_chinese",
      "measure_datetime": "2021/06/16 08:09:35",
      "reset_log": {
        "result_id": 1
      }
    },
    {
      "action_type": 7,
      "contents_id": "MSI",
      "transaction_id": "dcgytadectk26hcoouphj3f8g",
      "page_code": "PG_RESET_002",
      "language_code": "thai",
      "measure_datetime": "2021/06/16 08:13:03",
      "reset_log": {}
    },
    {
      "action_type": 1,
      "contents_id": "MSI",
      "transaction_id": "dcgytadectk26hcoouphj3f8g",
      "page_code": "PG_RESET_011",
      "language_code": "thai",
      "measure_datetime": "2021/06/16 08:13:03",
      "reset_log": {}
    },
    {
      "action_type": 1,
      "contents_id": "MSI",
      "transaction_id": "dcgytadectk26hcoouphj3f8g",
      "page_code": "PG_RESET_021",
      "language_code": "thai",
      "measure_datetime": "2021/06/16 08:13:12",
      "reset_log": {}
    },
    {
      "action_type": 1,
      "contents_id": "MSI",
      "transaction_id": "dcgytadectk26hcoouphj3f8g",
      "page_code": "PG_RESET_031",
      "language_code": "thai",
      "measure_datetime": "2021/06/16 08:13:25",
      "reset_log": {}
    },
    {
      "action_type": 1,
      "contents_id": "MSI",
      "transaction_id": "dcgytadectk26hcoouphj3f8g",
      "page_code": "PG_RESET_041",
      "language_code": "thai",
      "measure_datetime": "2021/06/16 08:13:39",
      "reset_log": {
        "result_id": 3
      }
    },
    {
      "action_type": 14,
      "contents_id": "MSI",
      "transaction_id": "dcgytadectk26hcoouphj3f8g",
      "page_code": "PG_RESET_051",
      "language_code": "thai",
      "measure_datetime": "2021/06/16 08:14:31",
      "reset_log": {
        "result_id": 3
      }
    },
    {
      "action_type": 1,
      "contents_id": "MSI",
      "transaction_id": "dcgytadectk26hcoouphj3f8g",
      "page_code": "PG_RESET_061",
      "language_code": "thai",
      "measure_datetime": "2021/06/16 08:14:39",
      "reset_log": {
        "result_id": 3
      }
    },
    {
      "action_type": 1,
      "contents_id": "MSI",
      "transaction_id": "dcgytadectk26hcoouphj3f8g",
      "page_code": "PG_RESET_099",
      "language_code": "thai",
      "measure_datetime": "2021/06/16 08:14:57",
      "reset_log": {
        "result_id": 3
      }
    },
    {
      "action_type": 98,
      "contents_id": "MSI",
      "transaction_id": "dcgytadectk26hcoouphj3f8g",
      "page_code": "PG_RESET_098",
      "language_code": "thai",
      "measure_datetime": "2021/06/16 08:15:03",
      "reset_log": {
        "result_id": 3
      }
    },
    {
      "action_type": 7,
      "contents_id": "MSI",
      "transaction_id": "mmlmavljhc5nsazualeo06jka8",
      "page_code": "PG_RESET_002",
      "language_code": "thai",
      "measure_datetime": "2021/06/16 08:27:22",
      "reset_log": {}
    },
    {
      "action_type": 1,
      "contents_id": "MSI",
      "transaction_id": "mmlmavljhc5nsazualeo06jka8",
      "page_code": "PG_RESET_011",
      "language_code": "thai",
      "measure_datetime": "2021/06/16 08:27:22",
      "reset_log": {}
    },
    {
      "action_type": 1,
      "contents_id": "MSI",
      "transaction_id": "mmlmavljhc5nsazualeo06jka8",
      "page_code": "PG_RESET_021",
      "language_code": "thai",
      "measure_datetime": "2021/06/16 08:27:31",
      "reset_log": {}
    },
    {
      "action_type": 1,
      "contents_id": "MSI",
      "transaction_id": "mmlmavljhc5nsazualeo06jka8",
      "page_code": "PG_RESET_031",
      "language_code": "thai",
      "measure_datetime": "2021/06/16 08:27:44",
      "reset_log": {}
    },
    {
      "action_type": 1,
      "contents_id": "MSI",
      "transaction_id": "mmlmavljhc5nsazualeo06jka8",
      "page_code": "PG_RESET_041",
      "language_code": "thai",
      "measure_datetime": "2021/06/16 08:27:58",
      "reset_log": {
        "result_id": 2
      }
    },
    {
      "action_type": 14,
      "contents_id": "MSI",
      "transaction_id": "mmlmavljhc5nsazualeo06jka8",
      "page_code": "PG_RESET_051",
      "language_code": "thai",
      "measure_datetime": "2021/06/16 08:28:48",
      "reset_log": {
        "result_id": 2
      }
    },
    {
      "action_type": 1,
      "contents_id": "MSI",
      "transaction_id": "mmlmavljhc5nsazualeo06jka8",
      "page_code": "PG_RESET_061",
      "language_code": "thai",
      "measure_datetime": "2021/06/16 08:28:56",
      "reset_log": {
        "result_id": 2
      }
    },
    {
      "action_type": 1,
      "contents_id": "MSI",
      "transaction_id": "mmlmavljhc5nsazualeo06jka8",
      "page_code": "PG_RESET_099",
      "language_code": "thai",
      "measure_datetime": "2021/06/16 08:29:14",
      "reset_log": {
        "result_id": 2
      }
    },
    {
      "action_type": 98,
      "contents_id": "MSI",
      "transaction_id": "mmlmavljhc5nsazualeo06jka8",
      "page_code": "PG_RESET_098",
      "language_code": "thai",
      "measure_datetime": "2021/06/16 08:29:20",
      "reset_log": {
        "result_id": 2
      }
    },
    {
      "action_type": 7,
      "contents_id": "MSI",
      "transaction_id": "dfilrondanlayaagyg84ih1iuq73",
      "page_code": "PG_RESET_002",
      "language_code": "thai",
      "measure_datetime": "2021/06/16 08:29:31",
      "reset_log": {}
    },
    {
      "action_type": 1,
      "contents_id": "MSI",
      "transaction_id": "dfilrondanlayaagyg84ih1iuq73",
      "page_code": "PG_RESET_011",
      "language_code": "thai",
      "measure_datetime": "2021/06/16 08:29:32",
      "reset_log": {}
    },
    {
      "action_type": 1,
      "contents_id": "MSI",
      "transaction_id": "dfilrondanlayaagyg84ih1iuq73",
      "page_code": "PG_RESET_021",
      "language_code": "thai",
      "measure_datetime": "2021/06/16 08:29:40",
      "reset_log": {}
    },
    {
      "action_type": 1,
      "contents_id": "MSI",
      "transaction_id": "dfilrondanlayaagyg84ih1iuq73",
      "page_code": "PG_RESET_031",
      "language_code": "thai",
      "measure_datetime": "2021/06/16 08:29:53",
      "reset_log": {}
    },
    {
      "action_type": 1,
      "contents_id": "MSI",
      "transaction_id": "dfilrondanlayaagyg84ih1iuq73",
      "page_code": "PG_RESET_041",
      "language_code": "thai",
      "measure_datetime": "2021/06/16 08:30:07",
      "reset_log": {
        "result_id": 1
      }
    },
    {
      "action_type": 14,
      "contents_id": "MSI",
      "transaction_id": "dfilrondanlayaagyg84ih1iuq73",
      "page_code": "PG_RESET_051",
      "language_code": "thai",
      "measure_datetime": "2021/06/16 08:30:57",
      "reset_log": {
        "result_id": 1
      }
    },
    {
      "action_type": 1,
      "contents_id": "MSI",
      "transaction_id": "dfilrondanlayaagyg84ih1iuq73",
      "page_code": "PG_RESET_061",
      "language_code": "thai",
      "measure_datetime": "2021/06/16 08:31:05",
      "reset_log": {
        "result_id": 1
      }
    },
    {
      "action_type": 1,
      "contents_id": "MSI",
      "transaction_id": "dfilrondanlayaagyg84ih1iuq73",
      "page_code": "PG_RESET_099",
      "language_code": "thai",
      "measure_datetime": "2021/06/16 08:31:23",
      "reset_log": {
        "result_id": 1
      }
    },
    {
      "action_type": 98,
      "contents_id": "MSI",
      "transaction_id": "dfilrondanlayaagyg84ih1iuq73",
      "page_code": "PG_RESET_098",
      "language_code": "thai",
      "measure_datetime": "2021/06/16 08:31:29",
      "reset_log": {
        "result_id": 1
      }
    },
    {
      "action_type": 7,
      "contents_id": "MSI",
      "transaction_id": "qv58we9op654fmuvvlm88vshmi6",
      "page_code": "PG_RESET_002",
      "language_code": "thai",
      "measure_datetime": "2021/06/16 08:36:48",
      "reset_log": {}
    },
    {
      "action_type": 1,
      "contents_id": "MSI",
      "transaction_id": "qv58we9op654fmuvvlm88vshmi6",
      "page_code": "PG_RESET_011",
      "language_code": "thai",
      "measure_datetime": "2021/06/16 08:36:48",
      "reset_log": {}
    },
    {
      "action_type": 1,
      "contents_id": "MSI",
      "transaction_id": "qv58we9op654fmuvvlm88vshmi6",
      "page_code": "PG_RESET_021",
      "language_code": "thai",
      "measure_datetime": "2021/06/16 08:36:57",
      "reset_log": {}
    },
    {
      "action_type": 1,
      "contents_id": "MSI",
      "transaction_id": "qv58we9op654fmuvvlm88vshmi6",
      "page_code": "PG_RESET_031",
      "language_code": "thai",
      "measure_datetime": "2021/06/16 08:37:10",
      "reset_log": {}
    },
    {
      "action_type": 1,
      "contents_id": "MSI",
      "transaction_id": "qv58we9op654fmuvvlm88vshmi6",
      "page_code": "PG_RESET_041",
      "language_code": "thai",
      "measure_datetime": "2021/06/16 08:37:24",
      "reset_log": {
        "result_id": 3
      }
    },
    {
      "action_type": 14,
      "contents_id": "MSI",
      "transaction_id": "qv58we9op654fmuvvlm88vshmi6",
      "page_code": "PG_RESET_051",
      "language_code": "thai",
      "measure_datetime": "2021/06/16 08:38:14",
      "reset_log": {
        "result_id": 3
      }
    },
    {
      "action_type": 1,
      "contents_id": "MSI",
      "transaction_id": "qv58we9op654fmuvvlm88vshmi6",
      "page_code": "PG_RESET_061",
      "language_code": "thai",
      "measure_datetime": "2021/06/16 08:38:22",
      "reset_log": {
        "result_id": 3
      }
    },
    {
      "action_type": 1,
      "contents_id": "MSI",
      "transaction_id": "qv58we9op654fmuvvlm88vshmi6",
      "page_code": "PG_RESET_099",
      "language_code": "thai",
      "measure_datetime": "2021/06/16 08:38:40",
      "reset_log": {
        "result_id": 3
      }
    },
    {
      "action_type": 98,
      "contents_id": "MSI",
      "transaction_id": "qv58we9op654fmuvvlm88vshmi6",
      "page_code": "PG_RESET_098",
      "language_code": "thai",
      "measure_datetime": "2021/06/16 08:38:46",
      "reset_log": {
        "result_id": 3
      }
    },
    {
      "action_type": 7,
      "contents_id": "MSI",
      "transaction_id": "ahxcmo6c87w47huv4m42yzl37k",
      "page_code": "PG_RESET_002",
      "language_code": "thai",
      "measure_datetime": "2021/06/16 08:39:38",
      "reset_log": {}
    },
    {
      "action_type": 1,
      "contents_id": "MSI",
      "transaction_id": "ahxcmo6c87w47huv4m42yzl37k",
      "page_code": "PG_RESET_011",
      "language_code": "thai",
      "measure_datetime": "2021/06/16 08:39:39",
      "reset_log": {}
    },
    {
      "action_type": 1,
      "contents_id": "MSI",
      "transaction_id": "ahxcmo6c87w47huv4m42yzl37k",
      "page_code": "PG_RESET_021",
      "language_code": "thai",
      "measure_datetime": "2021/06/16 08:39:47",
      "reset_log": {}
    },
    {
      "action_type": 1,
      "contents_id": "MSI",
      "transaction_id": "ahxcmo6c87w47huv4m42yzl37k",
      "page_code": "PG_RESET_031",
      "language_code": "thai",
      "measure_datetime": "2021/06/16 08:40:00",
      "reset_log": {}
    },
    {
      "action_type": 1,
      "contents_id": "MSI",
      "transaction_id": "ahxcmo6c87w47huv4m42yzl37k",
      "page_code": "PG_RESET_041",
      "language_code": "thai",
      "measure_datetime": "2021/06/16 08:40:14",
      "reset_log": {
        "result_id": 3
      }
    },
    {
      "action_type": 14,
      "contents_id": "MSI",
      "transaction_id": "ahxcmo6c87w47huv4m42yzl37k",
      "page_code": "PG_RESET_051",
      "language_code": "thai",
      "measure_datetime": "2021/06/16 08:41:04",
      "reset_log": {
        "result_id": 3
      }
    },
    {
      "action_type": 1,
      "contents_id": "MSI",
      "transaction_id": "ahxcmo6c87w47huv4m42yzl37k",
      "page_code": "PG_RESET_061",
      "language_code": "thai",
      "measure_datetime": "2021/06/16 08:41:12",
      "reset_log": {
        "result_id": 3
      }
    },
    {
      "action_type": 1,
      "contents_id": "MSI",
      "transaction_id": "ahxcmo6c87w47huv4m42yzl37k",
      "page_code": "PG_RESET_099",
      "language_code": "thai",
      "measure_datetime": "2021/06/16 08:41:30",
      "reset_log": {
        "result_id": 3
      }
    },
    {
      "action_type": 98,
      "contents_id": "MSI",
      "transaction_id": "ahxcmo6c87w47huv4m42yzl37k",
      "page_code": "PG_RESET_098",
      "language_code": "thai",
      "measure_datetime": "2021/06/16 08:41:36",
      "reset_log": {
        "result_id": 3
      }
    },
    {
      "action_type": 7,
      "contents_id": "MSI",
      "transaction_id": "h1nad9z1ms9tpy2cou800383yarq",
      "page_code": "PG_RESET_002",
      "language_code": "thai",
      "measure_datetime": "2021/06/16 08:42:48",
      "reset_log": {}
    },
    {
      "action_type": 1,
      "contents_id": "MSI",
      "transaction_id": "h1nad9z1ms9tpy2cou800383yarq",
      "page_code": "PG_RESET_011",
      "language_code": "thai",
      "measure_datetime": "2021/06/16 08:42:49",
      "reset_log": {}
    },
    {
      "action_type": 1,
      "contents_id": "MSI",
      "transaction_id": "h1nad9z1ms9tpy2cou800383yarq",
      "page_code": "PG_RESET_021",
      "language_code": "thai",
      "measure_datetime": "2021/06/16 08:42:57",
      "reset_log": {}
    },
    {
      "action_type": 1,
      "contents_id": "MSI",
      "transaction_id": "h1nad9z1ms9tpy2cou800383yarq",
      "page_code": "PG_RESET_031",
      "language_code": "thai",
      "measure_datetime": "2021/06/16 08:43:11",
      "reset_log": {}
    },
    {
      "action_type": 1,
      "contents_id": "MSI",
      "transaction_id": "h1nad9z1ms9tpy2cou800383yarq",
      "page_code": "PG_RESET_041",
      "language_code": "thai",
      "measure_datetime": "2021/06/16 08:43:25",
      "reset_log": {
        "result_id": 1
      }
    },
    {
      "action_type": 14,
      "contents_id": "MSI",
      "transaction_id": "h1nad9z1ms9tpy2cou800383yarq",
      "page_code": "PG_RESET_051",
      "language_code": "thai",
      "measure_datetime": "2021/06/16 08:44:15",
      "reset_log": {
        "result_id": 1
      }
    },
    {
      "action_type": 1,
      "contents_id": "MSI",
      "transaction_id": "h1nad9z1ms9tpy2cou800383yarq",
      "page_code": "PG_RESET_061",
      "language_code": "thai",
      "measure_datetime": "2021/06/16 08:44:24",
      "reset_log": {
        "result_id": 1
      }
    },
    {
      "action_type": 1,
      "contents_id": "MSI",
      "transaction_id": "h1nad9z1ms9tpy2cou800383yarq",
      "page_code": "PG_RESET_099",
      "language_code": "thai",
      "measure_datetime": "2021/06/16 08:44:42",
      "reset_log": {
        "result_id": 1
      }
    },
    {
      "action_type": 98,
      "contents_id": "MSI",
      "transaction_id": "h1nad9z1ms9tpy2cou800383yarq",
      "page_code": "PG_RESET_098",
      "language_code": "thai",
      "measure_datetime": "2021/06/16 08:44:48",
      "reset_log": {
        "result_id": 1
      }
    },
    {
      "action_type": 7,
      "contents_id": "MSI",
      "transaction_id": "p7f830almqigwwt3b0rets1832nyr",
      "page_code": "PG_RESET_002",
      "language_code": "thai",
      "measure_datetime": "2021/06/16 08:46:13",
      "reset_log": {}
    },
    {
      "action_type": 1,
      "contents_id": "MSI",
      "transaction_id": "p7f830almqigwwt3b0rets1832nyr",
      "page_code": "PG_RESET_011",
      "language_code": "thai",
      "measure_datetime": "2021/06/16 08:46:13",
      "reset_log": {}
    },
    {
      "action_type": 1,
      "contents_id": "MSI",
      "transaction_id": "p7f830almqigwwt3b0rets1832nyr",
      "page_code": "PG_RESET_021",
      "language_code": "thai",
      "measure_datetime": "2021/06/16 08:46:22",
      "reset_log": {}
    },
    {
      "action_type": 1,
      "contents_id": "MSI",
      "transaction_id": "p7f830almqigwwt3b0rets1832nyr",
      "page_code": "PG_RESET_031",
      "language_code": "thai",
      "measure_datetime": "2021/06/16 08:46:35",
      "reset_log": {}
    },
    {
      "action_type": 1,
      "contents_id": "MSI",
      "transaction_id": "p7f830almqigwwt3b0rets1832nyr",
      "page_code": "PG_RESET_041",
      "language_code": "thai",
      "measure_datetime": "2021/06/16 08:46:49",
      "reset_log": {
        "result_id": 1
      }
    },
    {
      "action_type": 14,
      "contents_id": "MSI",
      "transaction_id": "p7f830almqigwwt3b0rets1832nyr",
      "page_code": "PG_RESET_051",
      "language_code": "thai",
      "measure_datetime": "2021/06/16 08:47:40",
      "reset_log": {
        "result_id": 1
      }
    },
    {
      "action_type": 1,
      "contents_id": "MSI",
      "transaction_id": "p7f830almqigwwt3b0rets1832nyr",
      "page_code": "PG_RESET_061",
      "language_code": "thai",
      "measure_datetime": "2021/06/16 08:47:48",
      "reset_log": {
        "result_id": 1
      }
    },
    {
      "action_type": 1,
      "contents_id": "MSI",
      "transaction_id": "p7f830almqigwwt3b0rets1832nyr",
      "page_code": "PG_RESET_099",
      "language_code": "thai",
      "measure_datetime": "2021/06/16 08:48:06",
      "reset_log": {
        "result_id": 1
      }
    },
    {
      "action_type": 98,
      "contents_id": "MSI",
      "transaction_id": "p7f830almqigwwt3b0rets1832nyr",
      "page_code": "PG_RESET_098",
      "language_code": "thai",
      "measure_datetime": "2021/06/16 08:48:12",
      "reset_log": {
        "result_id": 1
      }
    },
    {
      "action_type": 7,
      "contents_id": "MSI",
      "transaction_id": "vvsvp90l8c1plhk0zj6z307ib4",
      "page_code": "PG_RESET_002",
      "language_code": "english",
      "measure_datetime": "2021/06/16 09:01:08",
      "reset_log": {}
    },
    {
      "action_type": 1,
      "contents_id": "MSI",
      "transaction_id": "vvsvp90l8c1plhk0zj6z307ib4",
      "page_code": "PG_RESET_011",
      "language_code": "english",
      "measure_datetime": "2021/06/16 09:01:08",
      "reset_log": {}
    },
    {
      "action_type": 1,
      "contents_id": "MSI",
      "transaction_id": "vvsvp90l8c1plhk0zj6z307ib4",
      "page_code": "PG_RESET_021",
      "language_code": "english",
      "measure_datetime": "2021/06/16 09:01:17",
      "reset_log": {}
    },
    {
      "action_type": 1,
      "contents_id": "MSI",
      "transaction_id": "vvsvp90l8c1plhk0zj6z307ib4",
      "page_code": "PG_RESET_031",
      "language_code": "english",
      "measure_datetime": "2021/06/16 09:01:30",
      "reset_log": {}
    },
    {
      "action_type": 1,
      "contents_id": "MSI",
      "transaction_id": "vvsvp90l8c1plhk0zj6z307ib4",
      "page_code": "PG_RESET_041",
      "language_code": "english",
      "measure_datetime": "2021/06/16 09:01:45",
      "reset_log": {
        "result_id": 3
      }
    },
    {
      "action_type": 14,
      "contents_id": "MSI",
      "transaction_id": "vvsvp90l8c1plhk0zj6z307ib4",
      "page_code": "PG_RESET_051",
      "language_code": "english",
      "measure_datetime": "2021/06/16 09:02:36",
      "reset_log": {
        "result_id": 3
      }
    },
    {
      "action_type": 1,
      "contents_id": "MSI",
      "transaction_id": "vvsvp90l8c1plhk0zj6z307ib4",
      "page_code": "PG_RESET_061",
      "language_code": "english",
      "measure_datetime": "2021/06/16 09:02:44",
      "reset_log": {
        "result_id": 3
      }
    },
    {
      "action_type": 1,
      "contents_id": "MSI",
      "transaction_id": "vvsvp90l8c1plhk0zj6z307ib4",
      "page_code": "PG_RESET_099",
      "language_code": "english",
      "measure_datetime": "2021/06/16 09:03:02",
      "reset_log": {
        "result_id": 3
      }
    },
    {
      "action_type": 98,
      "contents_id": "MSI",
      "transaction_id": "vvsvp90l8c1plhk0zj6z307ib4",
      "page_code": "PG_RESET_098",
      "language_code": "english",
      "measure_datetime": "2021/06/16 09:03:08",
      "reset_log": {
        "result_id": 3
      }
    },
    {
      "action_type": 7,
      "contents_id": "MSI",
      "transaction_id": "xbcj3wq52b2ikku1nrw2k8sxq93q",
      "page_code": "PG_RESET_002",
      "language_code": "english",
      "measure_datetime": "2021/06/16 09:04:53",
      "reset_log": {}
    },
    {
      "action_type": 1,
      "contents_id": "MSI",
      "transaction_id": "xbcj3wq52b2ikku1nrw2k8sxq93q",
      "page_code": "PG_RESET_011",
      "language_code": "english",
      "measure_datetime": "2021/06/16 09:04:54",
      "reset_log": {}
    },
    {
      "action_type": 1,
      "contents_id": "MSI",
      "transaction_id": "xbcj3wq52b2ikku1nrw2k8sxq93q",
      "page_code": "PG_RESET_021",
      "language_code": "english",
      "measure_datetime": "2021/06/16 09:05:03",
      "reset_log": {}
    },
    {
      "action_type": 1,
      "contents_id": "MSI",
      "transaction_id": "xbcj3wq52b2ikku1nrw2k8sxq93q",
      "page_code": "PG_RESET_031",
      "language_code": "english",
      "measure_datetime": "2021/06/16 09:05:16",
      "reset_log": {}
    },
    {
      "action_type": 1,
      "contents_id": "MSI",
      "transaction_id": "xbcj3wq52b2ikku1nrw2k8sxq93q",
      "page_code": "PG_RESET_041",
      "language_code": "english",
      "measure_datetime": "2021/06/16 09:05:30",
      "reset_log": {
        "result_id": 3
      }
    },
    {
      "action_type": 14,
      "contents_id": "MSI",
      "transaction_id": "xbcj3wq52b2ikku1nrw2k8sxq93q",
      "page_code": "PG_RESET_051",
      "language_code": "english",
      "measure_datetime": "2021/06/16 09:06:21",
      "reset_log": {
        "result_id": 3
      }
    },
    {
      "action_type": 1,
      "contents_id": "MSI",
      "transaction_id": "xbcj3wq52b2ikku1nrw2k8sxq93q",
      "page_code": "PG_RESET_061",
      "language_code": "english",
      "measure_datetime": "2021/06/16 09:06:29",
      "reset_log": {
        "result_id": 3
      }
    },
    {
      "action_type": 1,
      "contents_id": "MSI",
      "transaction_id": "xbcj3wq52b2ikku1nrw2k8sxq93q",
      "page_code": "PG_RESET_099",
      "language_code": "english",
      "measure_datetime": "2021/06/16 09:06:48",
      "reset_log": {
        "result_id": 3
      }
    },
    {
      "action_type": 98,
      "contents_id": "MSI",
      "transaction_id": "xbcj3wq52b2ikku1nrw2k8sxq93q",
      "page_code": "PG_RESET_098",
      "language_code": "english",
      "measure_datetime": "2021/06/16 09:06:54",
      "reset_log": {
        "result_id": 3
      }
    },
    {
      "action_type": 7,
      "contents_id": "MSI",
      "transaction_id": "h9is0k9oo561y6m8bjq3iwnfwk8",
      "page_code": "PG_RESET_002",
      "language_code": "japanese",
      "measure_datetime": "2021/06/16 09:13:50",
      "reset_log": {}
    },
    {
      "action_type": 1,
      "contents_id": "MSI",
      "transaction_id": "h9is0k9oo561y6m8bjq3iwnfwk8",
      "page_code": "PG_RESET_011",
      "language_code": "japanese",
      "measure_datetime": "2021/06/16 09:13:50",
      "reset_log": {}
    },
    {
      "action_type": 1,
      "contents_id": "MSI",
      "transaction_id": "h9is0k9oo561y6m8bjq3iwnfwk8",
      "page_code": "PG_RESET_021",
      "language_code": "japanese",
      "measure_datetime": "2021/06/16 09:13:59",
      "reset_log": {}
    },
    {
      "action_type": 1,
      "contents_id": "MSI",
      "transaction_id": "h9is0k9oo561y6m8bjq3iwnfwk8",
      "page_code": "PG_RESET_031",
      "language_code": "japanese",
      "measure_datetime": "2021/06/16 09:14:12",
      "reset_log": {}
    },
    {
      "action_type": 1,
      "contents_id": "MSI",
      "transaction_id": "h9is0k9oo561y6m8bjq3iwnfwk8",
      "page_code": "PG_RESET_041",
      "language_code": "japanese",
      "measure_datetime": "2021/06/16 09:14:27",
      "reset_log": {
        "result_id": 3
      }
    },
    {
      "action_type": 14,
      "contents_id": "MSI",
      "transaction_id": "h9is0k9oo561y6m8bjq3iwnfwk8",
      "page_code": "PG_RESET_051",
      "language_code": "japanese",
      "measure_datetime": "2021/06/16 09:15:18",
      "reset_log": {
        "result_id": 3
      }
    },
    {
      "action_type": 1,
      "contents_id": "MSI",
      "transaction_id": "h9is0k9oo561y6m8bjq3iwnfwk8",
      "page_code": "PG_RESET_061",
      "language_code": "japanese",
      "measure_datetime": "2021/06/16 09:15:26",
      "reset_log": {
        "result_id": 3
      }
    },
    {
      "action_type": 1,
      "contents_id": "MSI",
      "transaction_id": "h9is0k9oo561y6m8bjq3iwnfwk8",
      "page_code": "PG_RESET_099",
      "language_code": "japanese",
      "measure_datetime": "2021/06/16 09:15:44",
      "reset_log": {
        "result_id": 3
      }
    },
    {
      "action_type": 98,
      "contents_id": "MSI",
      "transaction_id": "h9is0k9oo561y6m8bjq3iwnfwk8",
      "page_code": "PG_RESET_098",
      "language_code": "japanese",
      "measure_datetime": "2021/06/16 09:15:50",
      "reset_log": {
        "result_id": 3
      }
    },
    {
      "action_type": 7,
      "contents_id": "MSI",
      "transaction_id": "zjbk9n8mlvjnl6g8vcmnzonad",
      "page_code": "PG_RESET_002",
      "language_code": "english",
      "measure_datetime": "2021/06/16 09:16:26",
      "reset_log": {}
    },
    {
      "action_type": 1,
      "contents_id": "MSI",
      "transaction_id": "zjbk9n8mlvjnl6g8vcmnzonad",
      "page_code": "PG_RESET_011",
      "language_code": "english",
      "measure_datetime": "2021/06/16 09:16:26",
      "reset_log": {}
    },
    {
      "action_type": 1,
      "contents_id": "MSI",
      "transaction_id": "zjbk9n8mlvjnl6g8vcmnzonad",
      "page_code": "PG_RESET_021",
      "language_code": "english",
      "measure_datetime": "2021/06/16 09:16:35",
      "reset_log": {}
    },
    {
      "action_type": 1,
      "contents_id": "MSI",
      "transaction_id": "zjbk9n8mlvjnl6g8vcmnzonad",
      "page_code": "PG_RESET_031",
      "language_code": "english",
      "measure_datetime": "2021/06/16 09:16:49",
      "reset_log": {}
    },
    {
      "action_type": 1,
      "contents_id": "MSI",
      "transaction_id": "zjbk9n8mlvjnl6g8vcmnzonad",
      "page_code": "PG_RESET_041",
      "language_code": "english",
      "measure_datetime": "2021/06/16 09:17:03",
      "reset_log": {
        "result_id": 1
      }
    },
    {
      "action_type": 14,
      "contents_id": "MSI",
      "transaction_id": "zjbk9n8mlvjnl6g8vcmnzonad",
      "page_code": "PG_RESET_051",
      "language_code": "english",
      "measure_datetime": "2021/06/16 09:17:54",
      "reset_log": {
        "result_id": 1
      }
    },
    {
      "action_type": 1,
      "contents_id": "MSI",
      "transaction_id": "zjbk9n8mlvjnl6g8vcmnzonad",
      "page_code": "PG_RESET_061",
      "language_code": "english",
      "measure_datetime": "2021/06/16 09:18:02",
      "reset_log": {
        "result_id": 1
      }
    },
    {
      "action_type": 1,
      "contents_id": "MSI",
      "transaction_id": "zjbk9n8mlvjnl6g8vcmnzonad",
      "page_code": "PG_RESET_099",
      "language_code": "english",
      "measure_datetime": "2021/06/16 09:18:20",
      "reset_log": {
        "result_id": 1
      }
    },
    {
      "action_type": 98,
      "contents_id": "MSI",
      "transaction_id": "zjbk9n8mlvjnl6g8vcmnzonad",
      "page_code": "PG_RESET_098",
      "language_code": "english",
      "measure_datetime": "2021/06/16 09:18:27",
      "reset_log": {
        "result_id": 1
      }
    },
    {
      "action_type": 7,
      "contents_id": "MSI",
      "transaction_id": "jggzhd1260l4jkvoror5e1ce92i",
      "page_code": "PG_RESET_002",
      "language_code": "simplified_chinese",
      "measure_datetime": "2021/06/16 09:18:48",
      "reset_log": {}
    },
    {
      "action_type": 1,
      "contents_id": "MSI",
      "transaction_id": "jggzhd1260l4jkvoror5e1ce92i",
      "page_code": "PG_RESET_011",
      "language_code": "simplified_chinese",
      "measure_datetime": "2021/06/16 09:18:48",
      "reset_log": {}
    },
    {
      "action_type": 1,
      "contents_id": "MSI",
      "transaction_id": "jggzhd1260l4jkvoror5e1ce92i",
      "page_code": "PG_RESET_021",
      "language_code": "simplified_chinese",
      "measure_datetime": "2021/06/16 09:18:57",
      "reset_log": {}
    },
    {
      "action_type": 1,
      "contents_id": "MSI",
      "transaction_id": "jggzhd1260l4jkvoror5e1ce92i",
      "page_code": "PG_RESET_031",
      "language_code": "simplified_chinese",
      "measure_datetime": "2021/06/16 09:19:10",
      "reset_log": {}
    },
    {
      "action_type": 1,
      "contents_id": "MSI",
      "transaction_id": "jggzhd1260l4jkvoror5e1ce92i",
      "page_code": "PG_RESET_041",
      "language_code": "simplified_chinese",
      "measure_datetime": "2021/06/16 09:19:24",
      "reset_log": {
        "result_id": 1
      }
    },
    {
      "action_type": 14,
      "contents_id": "MSI",
      "transaction_id": "jggzhd1260l4jkvoror5e1ce92i",
      "page_code": "PG_RESET_051",
      "language_code": "simplified_chinese",
      "measure_datetime": "2021/06/16 09:20:15",
      "reset_log": {
        "result_id": 1
      }
    },
    {
      "action_type": 1,
      "contents_id": "MSI",
      "transaction_id": "jggzhd1260l4jkvoror5e1ce92i",
      "page_code": "PG_RESET_061",
      "language_code": "simplified_chinese",
      "measure_datetime": "2021/06/16 09:20:23",
      "reset_log": {
        "result_id": 1
      }
    },
    {
      "action_type": 1,
      "contents_id": "MSI",
      "transaction_id": "jggzhd1260l4jkvoror5e1ce92i",
      "page_code": "PG_RESET_099",
      "language_code": "simplified_chinese",
      "measure_datetime": "2021/06/16 09:20:42",
      "reset_log": {
        "result_id": 1
      }
    },
    {
      "action_type": 98,
      "contents_id": "MSI",
      "transaction_id": "jggzhd1260l4jkvoror5e1ce92i",
      "page_code": "PG_RESET_098",
      "language_code": "simplified_chinese",
      "measure_datetime": "2021/06/16 09:20:48",
      "reset_log": {
        "result_id": 1
      }
    },
    {
      "action_type": 7,
      "contents_id": "MSI",
      "transaction_id": "pl45is33g6oqhuds90tkpvgif2qf",
      "page_code": "PG_RESET_002",
      "language_code": "simplified_chinese",
      "measure_datetime": "2021/06/16 09:22:55",
      "reset_log": {}
    },
    {
      "action_type": 1,
      "contents_id": "MSI",
      "transaction_id": "pl45is33g6oqhuds90tkpvgif2qf",
      "page_code": "PG_RESET_011",
      "language_code": "simplified_chinese",
      "measure_datetime": "2021/06/16 09:22:56",
      "reset_log": {}
    },
    {
      "action_type": 1,
      "contents_id": "MSI",
      "transaction_id": "pl45is33g6oqhuds90tkpvgif2qf",
      "page_code": "PG_RESET_021",
      "language_code": "simplified_chinese",
      "measure_datetime": "2021/06/16 09:23:04",
      "reset_log": {}
    },
    {
      "action_type": 1,
      "contents_id": "MSI",
      "transaction_id": "pl45is33g6oqhuds90tkpvgif2qf",
      "page_code": "PG_RESET_031",
      "language_code": "simplified_chinese",
      "measure_datetime": "2021/06/16 09:23:18",
      "reset_log": {}
    },
    {
      "action_type": 1,
      "contents_id": "MSI",
      "transaction_id": "pl45is33g6oqhuds90tkpvgif2qf",
      "page_code": "PG_RESET_041",
      "language_code": "simplified_chinese",
      "measure_datetime": "2021/06/16 09:23:32",
      "reset_log": {
        "result_id": 1
      }
    },
    {
      "action_type": 14,
      "contents_id": "MSI",
      "transaction_id": "pl45is33g6oqhuds90tkpvgif2qf",
      "page_code": "PG_RESET_051",
      "language_code": "simplified_chinese",
      "measure_datetime": "2021/06/16 09:24:23",
      "reset_log": {
        "result_id": 1
      }
    },
    {
      "action_type": 1,
      "contents_id": "MSI",
      "transaction_id": "pl45is33g6oqhuds90tkpvgif2qf",
      "page_code": "PG_RESET_061",
      "language_code": "simplified_chinese",
      "measure_datetime": "2021/06/16 09:24:31",
      "reset_log": {
        "result_id": 1
      }
    },
    {
      "action_type": 1,
      "contents_id": "MSI",
      "transaction_id": "pl45is33g6oqhuds90tkpvgif2qf",
      "page_code": "PG_RESET_099",
      "language_code": "simplified_chinese",
      "measure_datetime": "2021/06/16 09:24:49",
      "reset_log": {
        "result_id": 1
      }
    },
    {
      "action_type": 98,
      "contents_id": "MSI",
      "transaction_id": "pl45is33g6oqhuds90tkpvgif2qf",
      "page_code": "PG_RESET_098",
      "language_code": "simplified_chinese",
      "measure_datetime": "2021/06/16 09:24:55",
      "reset_log": {
        "result_id": 1
      }
    },
    {
      "action_type": 7,
      "contents_id": "MSI",
      "transaction_id": "brwr886437sj97d0fxc9rcna8n",
      "page_code": "PG_RESET_002",
      "language_code": "traditional_chinese",
      "measure_datetime": "2021/06/16 09:25:17",
      "reset_log": {}
    },
    {
      "action_type": 1,
      "contents_id": "MSI",
      "transaction_id": "brwr886437sj97d0fxc9rcna8n",
      "page_code": "PG_RESET_011",
      "language_code": "traditional_chinese",
      "measure_datetime": "2021/06/16 09:25:17",
      "reset_log": {}
    },
    {
      "action_type": 1,
      "contents_id": "MSI",
      "transaction_id": "brwr886437sj97d0fxc9rcna8n",
      "page_code": "PG_RESET_021",
      "language_code": "traditional_chinese",
      "measure_datetime": "2021/06/16 09:25:26",
      "reset_log": {}
    },
    {
      "action_type": 1,
      "contents_id": "MSI",
      "transaction_id": "brwr886437sj97d0fxc9rcna8n",
      "page_code": "PG_RESET_031",
      "language_code": "traditional_chinese",
      "measure_datetime": "2021/06/16 09:25:40",
      "reset_log": {}
    },
    {
      "action_type": 1,
      "contents_id": "MSI",
      "transaction_id": "brwr886437sj97d0fxc9rcna8n",
      "page_code": "PG_RESET_041",
      "language_code": "traditional_chinese",
      "measure_datetime": "2021/06/16 09:25:54",
      "reset_log": {
        "result_id": 1
      }
    },
    {
      "action_type": 14,
      "contents_id": "MSI",
      "transaction_id": "brwr886437sj97d0fxc9rcna8n",
      "page_code": "PG_RESET_051",
      "language_code": "traditional_chinese",
      "measure_datetime": "2021/06/16 09:26:45",
      "reset_log": {
        "result_id": 1
      }
    },
    {
      "action_type": 1,
      "contents_id": "MSI",
      "transaction_id": "brwr886437sj97d0fxc9rcna8n",
      "page_code": "PG_RESET_061",
      "language_code": "traditional_chinese",
      "measure_datetime": "2021/06/16 09:26:53",
      "reset_log": {
        "result_id": 1
      }
    },
    {
      "action_type": 1,
      "contents_id": "MSI",
      "transaction_id": "brwr886437sj97d0fxc9rcna8n",
      "page_code": "PG_RESET_099",
      "language_code": "traditional_chinese",
      "measure_datetime": "2021/06/16 09:27:11",
      "reset_log": {
        "result_id": 1
      }
    },
    {
      "action_type": 98,
      "contents_id": "MSI",
      "transaction_id": "brwr886437sj97d0fxc9rcna8n",
      "page_code": "PG_RESET_098",
      "language_code": "traditional_chinese",
      "measure_datetime": "2021/06/16 09:27:17",
      "reset_log": {
        "result_id": 1
      }
    },
    {
      "action_type": 7,
      "contents_id": "MSI",
      "transaction_id": "xudn3oad63mkwwwh5omiho07n3ilk",
      "page_code": "PG_RESET_002",
      "language_code": "thai",
      "measure_datetime": "2021/06/16 09:27:35",
      "reset_log": {}
    },
    {
      "action_type": 1,
      "contents_id": "MSI",
      "transaction_id": "xudn3oad63mkwwwh5omiho07n3ilk",
      "page_code": "PG_RESET_011",
      "language_code": "thai",
      "measure_datetime": "2021/06/16 09:27:35",
      "reset_log": {}
    },
    {
      "action_type": 1,
      "contents_id": "MSI",
      "transaction_id": "xudn3oad63mkwwwh5omiho07n3ilk",
      "page_code": "PG_RESET_021",
      "language_code": "thai",
      "measure_datetime": "2021/06/16 09:27:44",
      "reset_log": {}
    },
    {
      "action_type": 1,
      "contents_id": "MSI",
      "transaction_id": "xudn3oad63mkwwwh5omiho07n3ilk",
      "page_code": "PG_RESET_031",
      "language_code": "thai",
      "measure_datetime": "2021/06/16 09:27:57",
      "reset_log": {}
    },
    {
      "action_type": 1,
      "contents_id": "MSI",
      "transaction_id": "xudn3oad63mkwwwh5omiho07n3ilk",
      "page_code": "PG_RESET_041",
      "language_code": "thai",
      "measure_datetime": "2021/06/16 09:28:11",
      "reset_log": {
        "result_id": 1
      }
    },
    {
      "action_type": 14,
      "contents_id": "MSI",
      "transaction_id": "xudn3oad63mkwwwh5omiho07n3ilk",
      "page_code": "PG_RESET_051",
      "language_code": "thai",
      "measure_datetime": "2021/06/16 09:29:02",
      "reset_log": {
        "result_id": 1
      }
    },
    {
      "action_type": 1,
      "contents_id": "MSI",
      "transaction_id": "xudn3oad63mkwwwh5omiho07n3ilk",
      "page_code": "PG_RESET_061",
      "language_code": "thai",
      "measure_datetime": "2021/06/16 09:29:10",
      "reset_log": {
        "result_id": 1
      }
    },
    {
      "action_type": 1,
      "contents_id": "MSI",
      "transaction_id": "xudn3oad63mkwwwh5omiho07n3ilk",
      "page_code": "PG_RESET_099",
      "language_code": "thai",
      "measure_datetime": "2021/06/16 09:29:29",
      "reset_log": {
        "result_id": 1
      }
    },
    {
      "action_type": 98,
      "contents_id": "MSI",
      "transaction_id": "xudn3oad63mkwwwh5omiho07n3ilk",
      "page_code": "PG_RESET_098",
      "language_code": "thai",
      "measure_datetime": "2021/06/16 09:29:35",
      "reset_log": {
        "result_id": 1
      }
    },
    {
      "action_type": 7,
      "contents_id": "MSI",
      "transaction_id": "x3vsqjym4xpmovbtwk8gkssl19",
      "page_code": "PG_RESET_002",
      "language_code": "english",
      "measure_datetime": "2021/06/16 10:13:04",
      "reset_log": {}
    },
    {
      "action_type": 1,
      "contents_id": "MSI",
      "transaction_id": "x3vsqjym4xpmovbtwk8gkssl19",
      "page_code": "PG_RESET_011",
      "language_code": "english",
      "measure_datetime": "2021/06/16 10:13:04",
      "reset_log": {}
    },
    {
      "action_type": 1,
      "contents_id": "MSI",
      "transaction_id": "x3vsqjym4xpmovbtwk8gkssl19",
      "page_code": "PG_RESET_021",
      "language_code": "english",
      "measure_datetime": "2021/06/16 10:13:12",
      "reset_log": {}
    },
    {
      "action_type": 1,
      "contents_id": "MSI",
      "transaction_id": "x3vsqjym4xpmovbtwk8gkssl19",
      "page_code": "PG_RESET_031",
      "language_code": "english",
      "measure_datetime": "2021/06/16 10:13:26",
      "reset_log": {}
    },
    {
      "action_type": 1,
      "contents_id": "MSI",
      "transaction_id": "x3vsqjym4xpmovbtwk8gkssl19",
      "page_code": "PG_RESET_041",
      "language_code": "english",
      "measure_datetime": "2021/06/16 10:13:40",
      "reset_log": {
        "result_id": 1
      }
    },
    {
      "action_type": 14,
      "contents_id": "MSI",
      "transaction_id": "x3vsqjym4xpmovbtwk8gkssl19",
      "page_code": "PG_RESET_051",
      "language_code": "english",
      "measure_datetime": "2021/06/16 10:14:30",
      "reset_log": {
        "result_id": 1
      }
    },
    {
      "action_type": 1,
      "contents_id": "MSI",
      "transaction_id": "x3vsqjym4xpmovbtwk8gkssl19",
      "page_code": "PG_RESET_061",
      "language_code": "english",
      "measure_datetime": "2021/06/16 10:14:38",
      "reset_log": {
        "result_id": 1
      }
    },
    {
      "action_type": 1,
      "contents_id": "MSI",
      "transaction_id": "x3vsqjym4xpmovbtwk8gkssl19",
      "page_code": "PG_RESET_099",
      "language_code": "english",
      "measure_datetime": "2021/06/16 10:14:56",
      "reset_log": {
        "result_id": 1
      }
    },
    {
      "action_type": 98,
      "contents_id": "MSI",
      "transaction_id": "x3vsqjym4xpmovbtwk8gkssl19",
      "page_code": "PG_RESET_098",
      "language_code": "english",
      "measure_datetime": "2021/06/16 10:15:03",
      "reset_log": {
        "result_id": 1
      }
    },
    {
      "action_type": 7,
      "contents_id": "MSI",
      "transaction_id": "2nwpphcenqmzung4rtpzxij4osk7l",
      "page_code": "PG_RESET_002",
      "language_code": "traditional_chinese",
      "measure_datetime": "2021/06/16 10:16:57",
      "reset_log": {}
    },
    {
      "action_type": 1,
      "contents_id": "MSI",
      "transaction_id": "2nwpphcenqmzung4rtpzxij4osk7l",
      "page_code": "PG_RESET_011",
      "language_code": "traditional_chinese",
      "measure_datetime": "2021/06/16 10:16:58",
      "reset_log": {}
    },
    {
      "action_type": 1,
      "contents_id": "MSI",
      "transaction_id": "2nwpphcenqmzung4rtpzxij4osk7l",
      "page_code": "PG_RESET_021",
      "language_code": "traditional_chinese",
      "measure_datetime": "2021/06/16 10:17:06",
      "reset_log": {}
    },
    {
      "action_type": 1,
      "contents_id": "MSI",
      "transaction_id": "2nwpphcenqmzung4rtpzxij4osk7l",
      "page_code": "PG_RESET_031",
      "language_code": "traditional_chinese",
      "measure_datetime": "2021/06/16 10:17:20",
      "reset_log": {}
    },
    {
      "action_type": 1,
      "contents_id": "MSI",
      "transaction_id": "2nwpphcenqmzung4rtpzxij4osk7l",
      "page_code": "PG_RESET_041",
      "language_code": "traditional_chinese",
      "measure_datetime": "2021/06/16 10:17:34",
      "reset_log": {
        "result_id": 1
      }
    },
    {
      "action_type": 14,
      "contents_id": "MSI",
      "transaction_id": "2nwpphcenqmzung4rtpzxij4osk7l",
      "page_code": "PG_RESET_051",
      "language_code": "traditional_chinese",
      "measure_datetime": "2021/06/16 10:18:24",
      "reset_log": {
        "result_id": 1
      }
    },
    {
      "action_type": 1,
      "contents_id": "MSI",
      "transaction_id": "2nwpphcenqmzung4rtpzxij4osk7l",
      "page_code": "PG_RESET_061",
      "language_code": "traditional_chinese",
      "measure_datetime": "2021/06/16 10:18:32",
      "reset_log": {
        "result_id": 1
      }
    },
    {
      "action_type": 1,
      "contents_id": "MSI",
      "transaction_id": "2nwpphcenqmzung4rtpzxij4osk7l",
      "page_code": "PG_RESET_099",
      "language_code": "traditional_chinese",
      "measure_datetime": "2021/06/16 10:18:50",
      "reset_log": {
        "result_id": 1
      }
    },
    {
      "action_type": 98,
      "contents_id": "MSI",
      "transaction_id": "2nwpphcenqmzung4rtpzxij4osk7l",
      "page_code": "PG_RESET_098",
      "language_code": "traditional_chinese",
      "measure_datetime": "2021/06/16 10:18:56",
      "reset_log": {
        "result_id": 1
      }
    },
    {
      "action_type": 7,
      "contents_id": "MSI",
      "transaction_id": "fcoxl1rsk8x064opzf75fschhqvg7",
      "page_code": "PG_RESET_002",
      "language_code": "traditional_chinese",
      "measure_datetime": "2021/06/16 10:21:34",
      "reset_log": {}
    },
    {
      "action_type": 1,
      "contents_id": "MSI",
      "transaction_id": "fcoxl1rsk8x064opzf75fschhqvg7",
      "page_code": "PG_RESET_011",
      "language_code": "traditional_chinese",
      "measure_datetime": "2021/06/16 10:21:35",
      "reset_log": {}
    },
    {
      "action_type": 1,
      "contents_id": "MSI",
      "transaction_id": "fcoxl1rsk8x064opzf75fschhqvg7",
      "page_code": "PG_RESET_021",
      "language_code": "traditional_chinese",
      "measure_datetime": "2021/06/16 10:21:43",
      "reset_log": {}
    },
    {
      "action_type": 1,
      "contents_id": "MSI",
      "transaction_id": "fcoxl1rsk8x064opzf75fschhqvg7",
      "page_code": "PG_RESET_031",
      "language_code": "traditional_chinese",
      "measure_datetime": "2021/06/16 10:21:57",
      "reset_log": {}
    },
    {
      "action_type": 1,
      "contents_id": "MSI",
      "transaction_id": "fcoxl1rsk8x064opzf75fschhqvg7",
      "page_code": "PG_RESET_041",
      "language_code": "traditional_chinese",
      "measure_datetime": "2021/06/16 10:22:11",
      "reset_log": {
        "result_id": 3
      }
    },
    {
      "action_type": 14,
      "contents_id": "MSI",
      "transaction_id": "fcoxl1rsk8x064opzf75fschhqvg7",
      "page_code": "PG_RESET_051",
      "language_code": "traditional_chinese",
      "measure_datetime": "2021/06/16 10:23:01",
      "reset_log": {
        "result_id": 3
      }
    },
    {
      "action_type": 1,
      "contents_id": "MSI",
      "transaction_id": "fcoxl1rsk8x064opzf75fschhqvg7",
      "page_code": "PG_RESET_061",
      "language_code": "traditional_chinese",
      "measure_datetime": "2021/06/16 10:23:09",
      "reset_log": {
        "result_id": 3
      }
    },
    {
      "action_type": 1,
      "contents_id": "MSI",
      "transaction_id": "fcoxl1rsk8x064opzf75fschhqvg7",
      "page_code": "PG_RESET_099",
      "language_code": "traditional_chinese",
      "measure_datetime": "2021/06/16 10:23:27",
      "reset_log": {
        "result_id": 3
      }
    },
    {
      "action_type": 98,
      "contents_id": "MSI",
      "transaction_id": "fcoxl1rsk8x064opzf75fschhqvg7",
      "page_code": "PG_RESET_098",
      "language_code": "traditional_chinese",
      "measure_datetime": "2021/06/16 10:23:33",
      "reset_log": {
        "result_id": 3
      }
    },
    {
      "action_type": 7,
      "contents_id": "MSI",
      "transaction_id": "w8ne7clmi698jor8pbat6xg2s",
      "page_code": "PG_RESET_002",
      "language_code": "traditional_chinese",
      "measure_datetime": "2021/06/16 10:27:58",
      "reset_log": {}
    },
    {
      "action_type": 1,
      "contents_id": "MSI",
      "transaction_id": "w8ne7clmi698jor8pbat6xg2s",
      "page_code": "PG_RESET_011",
      "language_code": "traditional_chinese",
      "measure_datetime": "2021/06/16 10:27:58",
      "reset_log": {}
    },
    {
      "action_type": 1,
      "contents_id": "MSI",
      "transaction_id": "w8ne7clmi698jor8pbat6xg2s",
      "page_code": "PG_RESET_021",
      "language_code": "traditional_chinese",
      "measure_datetime": "2021/06/16 10:28:07",
      "reset_log": {}
    },
    {
      "action_type": 1,
      "contents_id": "MSI",
      "transaction_id": "w8ne7clmi698jor8pbat6xg2s",
      "page_code": "PG_RESET_031",
      "language_code": "traditional_chinese",
      "measure_datetime": "2021/06/16 10:28:20",
      "reset_log": {}
    },
    {
      "action_type": 1,
      "contents_id": "MSI",
      "transaction_id": "w8ne7clmi698jor8pbat6xg2s",
      "page_code": "PG_RESET_041",
      "language_code": "traditional_chinese",
      "measure_datetime": "2021/06/16 10:28:34",
      "reset_log": {
        "result_id": 2
      }
    },
    {
      "action_type": 14,
      "contents_id": "MSI",
      "transaction_id": "w8ne7clmi698jor8pbat6xg2s",
      "page_code": "PG_RESET_051",
      "language_code": "traditional_chinese",
      "measure_datetime": "2021/06/16 10:29:25",
      "reset_log": {
        "result_id": 2
      }
    },
    {
      "action_type": 1,
      "contents_id": "MSI",
      "transaction_id": "w8ne7clmi698jor8pbat6xg2s",
      "page_code": "PG_RESET_061",
      "language_code": "traditional_chinese",
      "measure_datetime": "2021/06/16 10:29:33",
      "reset_log": {
        "result_id": 2
      }
    },
    {
      "action_type": 1,
      "contents_id": "MSI",
      "transaction_id": "w8ne7clmi698jor8pbat6xg2s",
      "page_code": "PG_RESET_099",
      "language_code": "traditional_chinese",
      "measure_datetime": "2021/06/16 10:29:51",
      "reset_log": {
        "result_id": 2
      }
    },
    {
      "action_type": 98,
      "contents_id": "MSI",
      "transaction_id": "w8ne7clmi698jor8pbat6xg2s",
      "page_code": "PG_RESET_098",
      "language_code": "traditional_chinese",
      "measure_datetime": "2021/06/16 10:29:57",
      "reset_log": {
        "result_id": 2
      }
    },
    {
      "action_type": 7,
      "contents_id": "MSI",
      "transaction_id": "ixul1cjlvi2c3irjwmh6njwkzx",
      "page_code": "PG_RESET_002",
      "language_code": "english",
      "measure_datetime": "2021/06/16 10:42:54",
      "reset_log": {}
    },
    {
      "action_type": 1,
      "contents_id": "MSI",
      "transaction_id": "ixul1cjlvi2c3irjwmh6njwkzx",
      "page_code": "PG_RESET_011",
      "language_code": "english",
      "measure_datetime": "2021/06/16 10:42:54",
      "reset_log": {}
    },
    {
      "action_type": 1,
      "contents_id": "MSI",
      "transaction_id": "ixul1cjlvi2c3irjwmh6njwkzx",
      "page_code": "PG_RESET_021",
      "language_code": "english",
      "measure_datetime": "2021/06/16 10:43:03",
      "reset_log": {}
    },
    {
      "action_type": 1,
      "contents_id": "MSI",
      "transaction_id": "ixul1cjlvi2c3irjwmh6njwkzx",
      "page_code": "PG_RESET_031",
      "language_code": "english",
      "measure_datetime": "2021/06/16 10:43:16",
      "reset_log": {}
    },
    {
      "action_type": 1,
      "contents_id": "MSI",
      "transaction_id": "ixul1cjlvi2c3irjwmh6njwkzx",
      "page_code": "PG_RESET_041",
      "language_code": "english",
      "measure_datetime": "2021/06/16 10:43:30",
      "reset_log": {
        "result_id": 2
      }
    },
    {
      "action_type": 14,
      "contents_id": "MSI",
      "transaction_id": "ixul1cjlvi2c3irjwmh6njwkzx",
      "page_code": "PG_RESET_051",
      "language_code": "english",
      "measure_datetime": "2021/06/16 10:44:20",
      "reset_log": {
        "result_id": 2
      }
    },
    {
      "action_type": 1,
      "contents_id": "MSI",
      "transaction_id": "ixul1cjlvi2c3irjwmh6njwkzx",
      "page_code": "PG_RESET_061",
      "language_code": "english",
      "measure_datetime": "2021/06/16 10:44:28",
      "reset_log": {
        "result_id": 2
      }
    },
    {
      "action_type": 1,
      "contents_id": "MSI",
      "transaction_id": "ixul1cjlvi2c3irjwmh6njwkzx",
      "page_code": "PG_RESET_099",
      "language_code": "english",
      "measure_datetime": "2021/06/16 10:44:46",
      "reset_log": {
        "result_id": 2
      }
    },
    {
      "action_type": 98,
      "contents_id": "MSI",
      "transaction_id": "ixul1cjlvi2c3irjwmh6njwkzx",
      "page_code": "PG_RESET_098",
      "language_code": "english",
      "measure_datetime": "2021/06/16 10:44:52",
      "reset_log": {
        "result_id": 2
      }
    },
    {
      "action_type": 7,
      "contents_id": "MSI",
      "transaction_id": "u1pn8vvvdkwkuepkh7y5elvby",
      "page_code": "PG_RESET_002",
      "language_code": "english",
      "measure_datetime": "2021/06/16 10:57:05",
      "reset_log": {}
    },
    {
      "action_type": 1,
      "contents_id": "MSI",
      "transaction_id": "u1pn8vvvdkwkuepkh7y5elvby",
      "page_code": "PG_RESET_011",
      "language_code": "english",
      "measure_datetime": "2021/06/16 10:57:05",
      "reset_log": {}
    },
    {
      "action_type": 1,
      "contents_id": "MSI",
      "transaction_id": "u1pn8vvvdkwkuepkh7y5elvby",
      "page_code": "PG_RESET_021",
      "language_code": "english",
      "measure_datetime": "2021/06/16 10:57:14",
      "reset_log": {}
    },
    {
      "action_type": 1,
      "contents_id": "MSI",
      "transaction_id": "u1pn8vvvdkwkuepkh7y5elvby",
      "page_code": "PG_RESET_031",
      "language_code": "english",
      "measure_datetime": "2021/06/16 10:57:27",
      "reset_log": {}
    },
    {
      "action_type": 1,
      "contents_id": "MSI",
      "transaction_id": "u1pn8vvvdkwkuepkh7y5elvby",
      "page_code": "PG_RESET_041",
      "language_code": "english",
      "measure_datetime": "2021/06/16 10:57:41",
      "reset_log": {
        "result_id": 3
      }
    },
    {
      "action_type": 14,
      "contents_id": "MSI",
      "transaction_id": "u1pn8vvvdkwkuepkh7y5elvby",
      "page_code": "PG_RESET_051",
      "language_code": "english",
      "measure_datetime": "2021/06/16 10:58:31",
      "reset_log": {
        "result_id": 3
      }
    },
    {
      "action_type": 1,
      "contents_id": "MSI",
      "transaction_id": "u1pn8vvvdkwkuepkh7y5elvby",
      "page_code": "PG_RESET_061",
      "language_code": "english",
      "measure_datetime": "2021/06/16 10:58:39",
      "reset_log": {
        "result_id": 3
      }
    },
    {
      "action_type": 1,
      "contents_id": "MSI",
      "transaction_id": "u1pn8vvvdkwkuepkh7y5elvby",
      "page_code": "PG_RESET_099",
      "language_code": "english",
      "measure_datetime": "2021/06/16 10:58:57",
      "reset_log": {
        "result_id": 3
      }
    },
    {
      "action_type": 98,
      "contents_id": "MSI",
      "transaction_id": "u1pn8vvvdkwkuepkh7y5elvby",
      "page_code": "PG_RESET_098",
      "language_code": "english",
      "measure_datetime": "2021/06/16 10:59:03",
      "reset_log": {
        "result_id": 3
      }
    },
    {
      "action_type": 7,
      "contents_id": "MSI",
      "transaction_id": "8x60u2usuwhkbfrtv47dunwdgg49",
      "page_code": "PG_RESET_002",
      "language_code": "simplified_chinese",
      "measure_datetime": "2021/06/16 10:59:18",
      "reset_log": {}
    },
    {
      "action_type": 1,
      "contents_id": "MSI",
      "transaction_id": "8x60u2usuwhkbfrtv47dunwdgg49",
      "page_code": "PG_RESET_011",
      "language_code": "simplified_chinese",
      "measure_datetime": "2021/06/16 10:59:18",
      "reset_log": {}
    },
    {
      "action_type": 1,
      "contents_id": "MSI",
      "transaction_id": "8x60u2usuwhkbfrtv47dunwdgg49",
      "page_code": "PG_RESET_021",
      "language_code": "simplified_chinese",
      "measure_datetime": "2021/06/16 10:59:27",
      "reset_log": {}
    },
    {
      "action_type": 1,
      "contents_id": "MSI",
      "transaction_id": "8x60u2usuwhkbfrtv47dunwdgg49",
      "page_code": "PG_RESET_031",
      "language_code": "simplified_chinese",
      "measure_datetime": "2021/06/16 10:59:40",
      "reset_log": {}
    },
    {
      "action_type": 1,
      "contents_id": "MSI",
      "transaction_id": "8x60u2usuwhkbfrtv47dunwdgg49",
      "page_code": "PG_RESET_041",
      "language_code": "simplified_chinese",
      "measure_datetime": "2021/06/16 10:59:54",
      "reset_log": {
        "result_id": 2
      }
    },
    {
      "action_type": 14,
      "contents_id": "MSI",
      "transaction_id": "8x60u2usuwhkbfrtv47dunwdgg49",
      "page_code": "PG_RESET_051",
      "language_code": "simplified_chinese",
      "measure_datetime": "2021/06/16 11:00:44",
      "reset_log": {
        "result_id": 2
      }
    },
    {
      "action_type": 1,
      "contents_id": "MSI",
      "transaction_id": "8x60u2usuwhkbfrtv47dunwdgg49",
      "page_code": "PG_RESET_061",
      "language_code": "simplified_chinese",
      "measure_datetime": "2021/06/16 11:00:52",
      "reset_log": {
        "result_id": 2
      }
    },
    {
      "action_type": 1,
      "contents_id": "MSI",
      "transaction_id": "8x60u2usuwhkbfrtv47dunwdgg49",
      "page_code": "PG_RESET_099",
      "language_code": "simplified_chinese",
      "measure_datetime": "2021/06/16 11:01:10",
      "reset_log": {
        "result_id": 2
      }
    },
    {
      "action_type": 98,
      "contents_id": "MSI",
      "transaction_id": "8x60u2usuwhkbfrtv47dunwdgg49",
      "page_code": "PG_RESET_098",
      "language_code": "simplified_chinese",
      "measure_datetime": "2021/06/16 11:01:16",
      "reset_log": {
        "result_id": 2
      }
    },
    {
      "action_type": 7,
      "contents_id": "MSI",
      "transaction_id": "s252bml1lpad41nzskkrj4p91j15j",
      "page_code": "PG_RESET_002",
      "language_code": "simplified_chinese",
      "measure_datetime": "2021/06/16 11:02:37",
      "reset_log": {}
    },
    {
      "action_type": 1,
      "contents_id": "MSI",
      "transaction_id": "s252bml1lpad41nzskkrj4p91j15j",
      "page_code": "PG_RESET_011",
      "language_code": "simplified_chinese",
      "measure_datetime": "2021/06/16 11:02:38",
      "reset_log": {}
    },
    {
      "action_type": 1,
      "contents_id": "MSI",
      "transaction_id": "s252bml1lpad41nzskkrj4p91j15j",
      "page_code": "PG_RESET_021",
      "language_code": "simplified_chinese",
      "measure_datetime": "2021/06/16 11:02:46",
      "reset_log": {}
    },
    {
      "action_type": 1,
      "contents_id": "MSI",
      "transaction_id": "s252bml1lpad41nzskkrj4p91j15j",
      "page_code": "PG_RESET_031",
      "language_code": "simplified_chinese",
      "measure_datetime": "2021/06/16 11:03:00",
      "reset_log": {}
    },
    {
      "action_type": 1,
      "contents_id": "MSI",
      "transaction_id": "s252bml1lpad41nzskkrj4p91j15j",
      "page_code": "PG_RESET_041",
      "language_code": "simplified_chinese",
      "measure_datetime": "2021/06/16 11:03:14",
      "reset_log": {
        "result_id": 3
      }
    },
    {
      "action_type": 14,
      "contents_id": "MSI",
      "transaction_id": "s252bml1lpad41nzskkrj4p91j15j",
      "page_code": "PG_RESET_051",
      "language_code": "simplified_chinese",
      "measure_datetime": "2021/06/16 11:04:04",
      "reset_log": {
        "result_id": 3
      }
    },
    {
      "action_type": 1,
      "contents_id": "MSI",
      "transaction_id": "s252bml1lpad41nzskkrj4p91j15j",
      "page_code": "PG_RESET_061",
      "language_code": "simplified_chinese",
      "measure_datetime": "2021/06/16 11:04:11",
      "reset_log": {
        "result_id": 3
      }
    },
    {
      "action_type": 1,
      "contents_id": "MSI",
      "transaction_id": "s252bml1lpad41nzskkrj4p91j15j",
      "page_code": "PG_RESET_099",
      "language_code": "simplified_chinese",
      "measure_datetime": "2021/06/16 11:04:30",
      "reset_log": {
        "result_id": 3
      }
    },
    {
      "action_type": 98,
      "contents_id": "MSI",
      "transaction_id": "s252bml1lpad41nzskkrj4p91j15j",
      "page_code": "PG_RESET_098",
      "language_code": "simplified_chinese",
      "measure_datetime": "2021/06/16 11:04:36",
      "reset_log": {
        "result_id": 3
      }
    },
    {
      "action_type": 7,
      "contents_id": "MSI",
      "transaction_id": "i0yp2pp5q40ezr3woxu9tygjmj",
      "page_code": "PG_RESET_002",
      "language_code": "english",
      "measure_datetime": "2021/06/16 11:09:10",
      "reset_log": {}
    },
    {
      "action_type": 1,
      "contents_id": "MSI",
      "transaction_id": "i0yp2pp5q40ezr3woxu9tygjmj",
      "page_code": "PG_RESET_011",
      "language_code": "english",
      "measure_datetime": "2021/06/16 11:09:10",
      "reset_log": {}
    },
    {
      "action_type": 1,
      "contents_id": "MSI",
      "transaction_id": "i0yp2pp5q40ezr3woxu9tygjmj",
      "page_code": "PG_RESET_021",
      "language_code": "english",
      "measure_datetime": "2021/06/16 11:09:19",
      "reset_log": {}
    },
    {
      "action_type": 1,
      "contents_id": "MSI",
      "transaction_id": "i0yp2pp5q40ezr3woxu9tygjmj",
      "page_code": "PG_RESET_031",
      "language_code": "english",
      "measure_datetime": "2021/06/16 11:09:32",
      "reset_log": {}
    },
    {
      "action_type": 1,
      "contents_id": "MSI",
      "transaction_id": "i0yp2pp5q40ezr3woxu9tygjmj",
      "page_code": "PG_RESET_041",
      "language_code": "english",
      "measure_datetime": "2021/06/16 11:09:46",
      "reset_log": {
        "result_id": 3
      }
    },
    {
      "action_type": 14,
      "contents_id": "MSI",
      "transaction_id": "i0yp2pp5q40ezr3woxu9tygjmj",
      "page_code": "PG_RESET_051",
      "language_code": "english",
      "measure_datetime": "2021/06/16 11:10:36",
      "reset_log": {
        "result_id": 3
      }
    },
    {
      "action_type": 1,
      "contents_id": "MSI",
      "transaction_id": "i0yp2pp5q40ezr3woxu9tygjmj",
      "page_code": "PG_RESET_061",
      "language_code": "english",
      "measure_datetime": "2021/06/16 11:10:44",
      "reset_log": {
        "result_id": 3
      }
    },
    {
      "action_type": 1,
      "contents_id": "MSI",
      "transaction_id": "i0yp2pp5q40ezr3woxu9tygjmj",
      "page_code": "PG_RESET_099",
      "language_code": "english",
      "measure_datetime": "2021/06/16 11:11:02",
      "reset_log": {
        "result_id": 3
      }
    },
    {
      "action_type": 98,
      "contents_id": "MSI",
      "transaction_id": "i0yp2pp5q40ezr3woxu9tygjmj",
      "page_code": "PG_RESET_098",
      "language_code": "english",
      "measure_datetime": "2021/06/16 11:11:08",
      "reset_log": {
        "result_id": 3
      }
    },
    {
      "action_type": 7,
      "contents_id": "MSI",
      "transaction_id": "6lf9lubuz6u017h7b0zrdncjx2",
      "page_code": "PG_RESET_002",
      "language_code": "simplified_chinese",
      "measure_datetime": "2021/06/16 11:12:51",
      "reset_log": {}
    },
    {
      "action_type": 1,
      "contents_id": "MSI",
      "transaction_id": "6lf9lubuz6u017h7b0zrdncjx2",
      "page_code": "PG_RESET_011",
      "language_code": "simplified_chinese",
      "measure_datetime": "2021/06/16 11:12:51",
      "reset_log": {}
    },
    {
      "action_type": 1,
      "contents_id": "MSI",
      "transaction_id": "6lf9lubuz6u017h7b0zrdncjx2",
      "page_code": "PG_RESET_021",
      "language_code": "simplified_chinese",
      "measure_datetime": "2021/06/16 11:13:00",
      "reset_log": {}
    },
    {
      "action_type": 1,
      "contents_id": "MSI",
      "transaction_id": "6lf9lubuz6u017h7b0zrdncjx2",
      "page_code": "PG_RESET_031",
      "language_code": "simplified_chinese",
      "measure_datetime": "2021/06/16 11:13:13",
      "reset_log": {}
    },
    {
      "action_type": 1,
      "contents_id": "MSI",
      "transaction_id": "6lf9lubuz6u017h7b0zrdncjx2",
      "page_code": "PG_RESET_041",
      "language_code": "simplified_chinese",
      "measure_datetime": "2021/06/16 11:13:27",
      "reset_log": {
        "result_id": 2
      }
    },
    {
      "action_type": 14,
      "contents_id": "MSI",
      "transaction_id": "6lf9lubuz6u017h7b0zrdncjx2",
      "page_code": "PG_RESET_051",
      "language_code": "simplified_chinese",
      "measure_datetime": "2021/06/16 11:14:17",
      "reset_log": {
        "result_id": 2
      }
    },
    {
      "action_type": 1,
      "contents_id": "MSI",
      "transaction_id": "6lf9lubuz6u017h7b0zrdncjx2",
      "page_code": "PG_RESET_061",
      "language_code": "simplified_chinese",
      "measure_datetime": "2021/06/16 11:14:25",
      "reset_log": {
        "result_id": 2
      }
    },
    {
      "action_type": 1,
      "contents_id": "MSI",
      "transaction_id": "6lf9lubuz6u017h7b0zrdncjx2",
      "page_code": "PG_RESET_099",
      "language_code": "simplified_chinese",
      "measure_datetime": "2021/06/16 11:14:43",
      "reset_log": {
        "result_id": 2
      }
    },
    {
      "action_type": 98,
      "contents_id": "MSI",
      "transaction_id": "6lf9lubuz6u017h7b0zrdncjx2",
      "page_code": "PG_RESET_098",
      "language_code": "simplified_chinese",
      "measure_datetime": "2021/06/16 11:14:49",
      "reset_log": {
        "result_id": 2
      }
    }
  ]
}
