%YAML 1.1
%TAG !u! tag:unity3d.com,2011:
--- !u!74 &7400000
AnimationClip:
  m_ObjectHideFlags: 0
  m_CorrespondingSourceObject: {fileID: 0}
  m_PrefabInstance: {fileID: 0}
  m_PrefabAsset: {fileID: 0}
  m_Name: DefaultLoop
  serializedVersion: 6
  m_Legacy: 0
  m_Compressed: 0
  m_UseHighQualityCurve: 1
  m_RotationCurves: []
  m_CompressedRotationCurves: []
  m_EulerCurves: []
  m_PositionCurves: []
  m_ScaleCurves: []
  m_FloatCurves: []
  m_PPtrCurves:
  - curve:
    - time: 0
      value: {fileID: 21300000, guid: 20141bfe56e834b77afa20ec647b03a3, type: 3}
    - time: 0.033333335
      value: {fileID: 21300000, guid: 7b026a48e08a1449387b8f291db533e8, type: 3}
    - time: 0.06666667
      value: {fileID: 21300000, guid: cff572c08ace44abda3a104470c1767e, type: 3}
    - time: 0.1
      value: {fileID: 21300000, guid: a3d9d5e89709a4634bedf07cc747a66b, type: 3}
    - time: 0.13333334
      value: {fileID: 21300000, guid: e665616da46064f81b6979ae99813357, type: 3}
    - time: 0.16666667
      value: {fileID: 21300000, guid: 280b14b05b41f4541afd0695db771204, type: 3}
    - time: 0.2
      value: {fileID: 21300000, guid: 30180a2c6b8ca46958097f208be4edc3, type: 3}
    - time: 0.23333333
      value: {fileID: 21300000, guid: 65073b05a4a5745139672e7b650137ff, type: 3}
    - time: 0.26666668
      value: {fileID: 21300000, guid: 4587254db5477444ea5cc5386c92056f, type: 3}
    - time: 0.3
      value: {fileID: 21300000, guid: f488be1f6961542d9bbbf7a3e0f16b7a, type: 3}
    - time: 0.33333334
      value: {fileID: 21300000, guid: f3533b9d9c71e41d78e9aa883256926b, type: 3}
    - time: 0.36666667
      value: {fileID: 21300000, guid: b21fef77c0e62493d8672caac43e461d, type: 3}
    - time: 0.4
      value: {fileID: 21300000, guid: beeb1ea49452f4a03a1da3e17662c28d, type: 3}
    - time: 0.43333334
      value: {fileID: 21300000, guid: a2987658b8ab94ff0bc5a35e9b8cd362, type: 3}
    - time: 0.46666667
      value: {fileID: 21300000, guid: 60ff1378ea65d41499f73f7fe47e93bf, type: 3}
    - time: 0.5
      value: {fileID: 21300000, guid: cf313da7356734a308598cae5437a81d, type: 3}
    - time: 0.53333336
      value: {fileID: 21300000, guid: c971d3c4c38244e8b921ee8850f7b923, type: 3}
    - time: 0.56666666
      value: {fileID: 21300000, guid: fec9b47e8722549728ceccfeb7e768c5, type: 3}
    - time: 0.6
      value: {fileID: 21300000, guid: f9365f6e664cc4a75be93cc4f79436f8, type: 3}
    - time: 0.6333333
      value: {fileID: 21300000, guid: b782eb6fb4bc742cfb84b373fa85a355, type: 3}
    - time: 0.6666667
      value: {fileID: 21300000, guid: 4fd7c1a8effb1478498bff648a61c9ab, type: 3}
    - time: 0.7
      value: {fileID: 21300000, guid: 9a9aac53259b64ac3bc910b2f925ff42, type: 3}
    - time: 0.73333335
      value: {fileID: 21300000, guid: ea51acd382a8f41a3876fc8fbff488f9, type: 3}
    - time: 0.76666665
      value: {fileID: 21300000, guid: e87e64e7c03de4a71b3360b9fb0eba95, type: 3}
    - time: 0.8
      value: {fileID: 21300000, guid: 1db1c629176c345db8c23abf35a176ef, type: 3}
    - time: 0.8333333
      value: {fileID: 21300000, guid: ca1d51b647e6d4191b31b6c61b509835, type: 3}
    - time: 0.8666667
      value: {fileID: 21300000, guid: 639032322cdbb4e11bd208d804699f0c, type: 3}
    - time: 0.9
      value: {fileID: 21300000, guid: f165af56525b64846ae4c2796e31b5af, type: 3}
    - time: 0.93333334
      value: {fileID: 21300000, guid: c6836c29cae51409ab59ee9235d5952d, type: 3}
    - time: 0.96666664
      value: {fileID: 21300000, guid: e231f68a329a341dca91bd003b4a8168, type: 3}
    - time: 1
      value: {fileID: 21300000, guid: 71e444861fdf743e3b876ee219cbfa22, type: 3}
    - time: 1.0333333
      value: {fileID: 21300000, guid: b28c642b7cb7a488eb24b616c9d8419c, type: 3}
    - time: 1.0666667
      value: {fileID: 21300000, guid: a6ddf2c99d4e2490ea48f2dbe6433352, type: 3}
    - time: 1.1
      value: {fileID: 21300000, guid: 169d7db2292354be5b7f2a1cd83e7fbd, type: 3}
    - time: 1.1333333
      value: {fileID: 21300000, guid: eb4593f43dc7747a1add67a18cee5fee, type: 3}
    - time: 1.1666666
      value: {fileID: 21300000, guid: b6a7f9987241540e3b052283dc1f1e74, type: 3}
    - time: 1.2
      value: {fileID: 21300000, guid: 223d6c181cfae42ccb17d5e6c7d28ffb, type: 3}
    - time: 1.2333333
      value: {fileID: 21300000, guid: e246a481ea05946eda058c2b6a0582a0, type: 3}
    - time: 1.2666667
      value: {fileID: 21300000, guid: 115b14cf0d95540439d40739de1025d5, type: 3}
    - time: 1.3
      value: {fileID: 21300000, guid: 9db38e10dcaa14312aec60e6e358210e, type: 3}
    - time: 1.3333334
      value: {fileID: 21300000, guid: c4a36be61104441c1a64145ccad26dbf, type: 3}
    - time: 1.3666667
      value: {fileID: 21300000, guid: 5d5fccc89193d449d87836e38707d946, type: 3}
    - time: 1.4
      value: {fileID: 21300000, guid: 61ba82fb337964275b0c47aade0c43b9, type: 3}
    - time: 1.4333333
      value: {fileID: 21300000, guid: 0ee839f23f7544260b27b6c1802fccdb, type: 3}
    - time: 1.4666667
      value: {fileID: 21300000, guid: 9384503dd0e024f03bec75fb61b4b27e, type: 3}
    - time: 1.5
      value: {fileID: 21300000, guid: 2385e2a623c6f471bb6f3ede3799bf6b, type: 3}
    - time: 1.5333333
      value: {fileID: 21300000, guid: bd05525b5da1144f588de62846d614aa, type: 3}
    - time: 1.5666667
      value: {fileID: 21300000, guid: 5f50d58e419a649f3a4982b1e9ee386e, type: 3}
    - time: 1.6
      value: {fileID: 21300000, guid: aa60e4b6306114425bc4e15146955cf9, type: 3}
    - time: 1.6333333
      value: {fileID: 21300000, guid: 86fef7a77bfcb494bac367227ff1032a, type: 3}
    - time: 1.6666666
      value: {fileID: 21300000, guid: ebafd999bee114a32ab65e5ff3bd9f2d, type: 3}
    - time: 1.7
      value: {fileID: 21300000, guid: 7b36f2c8489494cff9f439f279af652e, type: 3}
    - time: 1.7333333
      value: {fileID: 21300000, guid: a8f28aca707064fb98d668a604106fe1, type: 3}
    - time: 1.7666667
      value: {fileID: 21300000, guid: f1c0dae2ae1cf449faf77502d159dde2, type: 3}
    - time: 1.8
      value: {fileID: 21300000, guid: a04162dce185b44f4af10127d2f3aa21, type: 3}
    - time: 1.8333334
      value: {fileID: 21300000, guid: 74848c2dbfe21426ca41b5e3b45b61fd, type: 3}
    - time: 1.8666667
      value: {fileID: 21300000, guid: a832752c8c2ca4228ab53cc9d07a6dec, type: 3}
    - time: 1.9
      value: {fileID: 21300000, guid: d56e91f7009d6436cbe063e4ddcb161b, type: 3}
    - time: 1.9333333
      value: {fileID: 21300000, guid: 769d789e2c2424e6585a97924844a1f6, type: 3}
    - time: 1.9666667
      value: {fileID: 21300000, guid: 500c5cc426fa14695a23cdb4edf34502, type: 3}
    - time: 2
      value: {fileID: 21300000, guid: 4c3431aceeca44d3fad7fc609370faa9, type: 3}
    - time: 2.0333333
      value: {fileID: 21300000, guid: 35ae59d41b6304d738d41cd4f18c7e0e, type: 3}
    - time: 2.0666666
      value: {fileID: 21300000, guid: d9cf12599c61d41dfa1cbe7c06230b1b, type: 3}
    - time: 2.1
      value: {fileID: 21300000, guid: 657f1e6803c4440dcae669088e373670, type: 3}
    - time: 2.1333334
      value: {fileID: 21300000, guid: f8611157c57b448e49a64242357b44e4, type: 3}
    - time: 2.1666667
      value: {fileID: 21300000, guid: 2bb7b7763aa474a798b2ad1109d43791, type: 3}
    - time: 2.2
      value: {fileID: 21300000, guid: 5e0c4cb23d71c4bbb8a1784434fe9908, type: 3}
    - time: 2.2333333
      value: {fileID: 21300000, guid: 75030c9a1641e4dfe8b4f3950a7311e1, type: 3}
    - time: 2.2666667
      value: {fileID: 21300000, guid: fde9f6eda0c7c40a59d0dc18300c6cfc, type: 3}
    - time: 2.3
      value: {fileID: 21300000, guid: ab66ee9e740b248d89d03d5e322c7055, type: 3}
    - time: 2.3333333
      value: {fileID: 21300000, guid: c2e051990e5524579b956e0777329948, type: 3}
    - time: 2.3666666
      value: {fileID: 21300000, guid: 3d05bc59d687c4b808c9320d0d0526cc, type: 3}
    - time: 2.4
      value: {fileID: 21300000, guid: 0021db550594c4ab48705b17c95527c4, type: 3}
    - time: 2.4333334
      value: {fileID: 21300000, guid: 406291b3022984afc9128bd950bf35c3, type: 3}
    - time: 2.4666667
      value: {fileID: 21300000, guid: 0e1db3f24cf06414589297c2ec2b1b28, type: 3}
    - time: 2.5
      value: {fileID: 21300000, guid: 2c0704b66b5084fd9a961c2c45cfffdf, type: 3}
    - time: 2.5333333
      value: {fileID: 21300000, guid: 4d8d63cb7f93a42b8a56495230a6c7d0, type: 3}
    - time: 2.5666666
      value: {fileID: 21300000, guid: a614fd22beb984f739647cc73299d3ed, type: 3}
    - time: 2.6
      value: {fileID: 21300000, guid: cff3eccb8f7e9450099acfca2049ca84, type: 3}
    - time: 2.6333334
      value: {fileID: 21300000, guid: 4e5a271b3a20d406ab1405cdfc198f18, type: 3}
    - time: 2.6666667
      value: {fileID: 21300000, guid: 9f2a001b363c94036a2ca93075654a60, type: 3}
    - time: 2.7
      value: {fileID: 21300000, guid: 8f982545ff2af4a1cb5d22847fcdd28a, type: 3}
    - time: 2.7333333
      value: {fileID: 21300000, guid: 3d9cc368a9f8d436d92fa2a3c258d9e3, type: 3}
    - time: 2.7666667
      value: {fileID: 21300000, guid: c832b9222d8f047dda744092195317b6, type: 3}
    - time: 2.8
      value: {fileID: 21300000, guid: e59580c91b25e4a8592b054658a8863b, type: 3}
    - time: 2.8333333
      value: {fileID: 21300000, guid: abc553ce7063e45d4a84965370bc0dda, type: 3}
    - time: 2.8666666
      value: {fileID: 21300000, guid: 58ff8383cc0054157b02a7c1700796e3, type: 3}
    - time: 2.9
      value: {fileID: 21300000, guid: bd061448f9dfa403eb49a69b5f628473, type: 3}
    - time: 2.9333334
      value: {fileID: 21300000, guid: e49bd358253da4b9babedf298ce3129f, type: 3}
    - time: 2.9666667
      value: {fileID: 21300000, guid: 4d41c4f8f76d84d09a4dff07e6a64b75, type: 3}
    - time: 3
      value: {fileID: 21300000, guid: c3e2121dbb43a4e6a8d37727c8d353cc, type: 3}
    - time: 3.0333333
      value: {fileID: 21300000, guid: 4495fc9bdcf7a414994d8ebd01c7f088, type: 3}
    - time: 3.0666666
      value: {fileID: 21300000, guid: 6b7d092b0259c44f3983acc07ba29b93, type: 3}
    - time: 3.1
      value: {fileID: 21300000, guid: 3353fbe39cbdf4dbb955bd35a203b874, type: 3}
    - time: 3.1333334
      value: {fileID: 21300000, guid: 7787810d0a0a64053ab1fa7c6b4db4dd, type: 3}
    - time: 3.1666667
      value: {fileID: 21300000, guid: afbe824b2571b48e49b029ace91c55d3, type: 3}
    - time: 3.2
      value: {fileID: 21300000, guid: 1271b3e19a6324de8a0f1541e8abc2ab, type: 3}
    - time: 3.2333333
      value: {fileID: 21300000, guid: 00232cdf045cb4879bda8c22ad8b399d, type: 3}
    - time: 3.2666667
      value: {fileID: 21300000, guid: 879a8e1e756fe45009377b80730811bb, type: 3}
    - time: 3.3
      value: {fileID: 21300000, guid: 350acc36337b6482b8ec7a135bb96002, type: 3}
    - time: 3.3333333
      value: {fileID: 21300000, guid: 2e1e64323c29149159addf458c6b8464, type: 3}
    - time: 3.3666666
      value: {fileID: 21300000, guid: dd4ead2df0eed4541bd380e8092ec727, type: 3}
    - time: 3.4
      value: {fileID: 21300000, guid: e3042994dd8d74b9885caf92db3ace63, type: 3}
    - time: 3.4333334
      value: {fileID: 21300000, guid: 2818318f2f5514994994f04cac7d19b6, type: 3}
    - time: 3.4666667
      value: {fileID: 21300000, guid: 9defb2c319d6542d3a1b05b52a4f8b9b, type: 3}
    - time: 3.5
      value: {fileID: 21300000, guid: 73ed6a7bf656f4908877c94aeb9f1b6e, type: 3}
    - time: 3.5333333
      value: {fileID: 21300000, guid: 7be40eb2158264cb9b78a022372a8201, type: 3}
    - time: 3.5666666
      value: {fileID: 21300000, guid: 5051a08dc4dc64fc0be399823ad79e9c, type: 3}
    - time: 3.6
      value: {fileID: 21300000, guid: a4b1dd68de930481ab4591561ba1de70, type: 3}
    - time: 3.6333334
      value: {fileID: 21300000, guid: ea72f6b82592a4d169ebd89004146392, type: 3}
    - time: 3.6666667
      value: {fileID: 21300000, guid: 0f20a6d91ecbc48d8b82bf776f0b13d1, type: 3}
    - time: 3.7
      value: {fileID: 21300000, guid: 5d16a4dbbaa2b42d589e6894680d927b, type: 3}
    - time: 3.7333333
      value: {fileID: 21300000, guid: 3857974ebb91649a9a2c6b76fb9ca65f, type: 3}
    - time: 3.7666667
      value: {fileID: 21300000, guid: d37778b5ea38e4000ac016cb90161b88, type: 3}
    - time: 3.8
      value: {fileID: 21300000, guid: ce3716d86b7934f3a8b98e29fb4c664c, type: 3}
    - time: 3.8333333
      value: {fileID: 21300000, guid: aa5b30192f84a46e38aaf31a44ae4b70, type: 3}
    - time: 3.8666666
      value: {fileID: 21300000, guid: e4e995809a19745b09abf01ea1a8876a, type: 3}
    - time: 3.9
      value: {fileID: 21300000, guid: fe2df139dbe08446c8162721ea68ffd0, type: 3}
    - time: 3.9333334
      value: {fileID: 21300000, guid: 9b9e38b14be264a4aadcb36b3f2bfc7d, type: 3}
    - time: 3.9666667
      value: {fileID: 21300000, guid: cda210d77743b47aeb8bfb1109f29ae1, type: 3}
    - time: 4
      value: {fileID: 21300000, guid: 3217d110cf91c4bb08079a60b6115fc7, type: 3}
    - time: 4.0333333
      value: {fileID: 21300000, guid: 8bb2f10ca495b4b6390cb4614cd17c4f, type: 3}
    - time: 4.0666666
      value: {fileID: 21300000, guid: 321beb7f8ee6b450dad57e96d2c89c42, type: 3}
    - time: 4.1
      value: {fileID: 21300000, guid: 32ffeabf95cc4462896b2eaf2dbee55e, type: 3}
    - time: 4.133333
      value: {fileID: 21300000, guid: a2c16f75021fd4bc284d890d033a6054, type: 3}
    - time: 4.1666665
      value: {fileID: 21300000, guid: 9bbac927f80e746c69cef22e05b75643, type: 3}
    - time: 4.2
      value: {fileID: 21300000, guid: 183a2fa560b214186a8737578a42cf8b, type: 3}
    - time: 4.233333
      value: {fileID: 21300000, guid: 4fa81014537274cb48541e0627cd8b9a, type: 3}
    - time: 4.266667
      value: {fileID: 21300000, guid: 4dfbddca9e9c747f48ebc4f87e8e47ea, type: 3}
    - time: 4.3
      value: {fileID: 21300000, guid: 2bea516f407d34678ae88a3c87923adb, type: 3}
    - time: 4.3333335
      value: {fileID: 21300000, guid: e32765a86f63c43d0a25a51acddd7e2e, type: 3}
    - time: 4.366667
      value: {fileID: 21300000, guid: 83a73e66f4b4043cd90a850868ba88fb, type: 3}
    - time: 4.4
      value: {fileID: 21300000, guid: a30bd34efe0384cd18bfb70c082f869d, type: 3}
    - time: 4.4333334
      value: {fileID: 21300000, guid: c23136386bdfc4e4094a31d1bdd7fee3, type: 3}
    - time: 4.4666667
      value: {fileID: 21300000, guid: e574fb95e7ed14ca4a97bdd972c1041b, type: 3}
    - time: 4.5
      value: {fileID: 21300000, guid: c0fd510a065fa463eb9eb44f3512458b, type: 3}
    - time: 4.5333333
      value: {fileID: 21300000, guid: 73cb6ab03db684d809ea0cfde1e95080, type: 3}
    - time: 4.5666666
      value: {fileID: 21300000, guid: 82dd3381e27404cef950c2b2cf73437c, type: 3}
    - time: 4.6
      value: {fileID: 21300000, guid: 1e6e78f26ced24764a7702486ee4da46, type: 3}
    - time: 4.633333
      value: {fileID: 21300000, guid: 582d4c01739ab4f27b227deff0e0a6e8, type: 3}
    - time: 4.6666665
      value: {fileID: 21300000, guid: b329f64bbef1d4fc088598b629fbf957, type: 3}
    - time: 4.7
      value: {fileID: 21300000, guid: c4804ef9a7e914d2eabdfa00260b2565, type: 3}
    - time: 4.733333
      value: {fileID: 21300000, guid: 9d3ebd8bac00b4c2bbfb86cd94c24fe4, type: 3}
    - time: 4.766667
      value: {fileID: 21300000, guid: 6fcf5eb95938b464fa1c77895d6eada0, type: 3}
    - time: 4.8
      value: {fileID: 21300000, guid: 9d5c92d7ca21a426385fa322e8b21830, type: 3}
    - time: 4.8333335
      value: {fileID: 21300000, guid: bc2576fa2b48f4f88aa7123a2889895d, type: 3}
    - time: 4.866667
      value: {fileID: 21300000, guid: 9239b0ebce39c4a4e980446c8d4e5b6d, type: 3}
    - time: 4.9
      value: {fileID: 21300000, guid: 961571b848c5d4beb96ddfab9b743b09, type: 3}
    - time: 4.9333334
      value: {fileID: 21300000, guid: abeb79691fa4a43cc969f76fa2918161, type: 3}
    - time: 4.9666667
      value: {fileID: 21300000, guid: 47ea5f2eff770417691e0590091fd88f, type: 3}
    - time: 5
      value: {fileID: 21300000, guid: 2428f68213c354897825678b77e6eb4b, type: 3}
    - time: 5.0333333
      value: {fileID: 21300000, guid: 54766757b7b3a4a8cb9e23c6ce455380, type: 3}
    - time: 5.0666666
      value: {fileID: 21300000, guid: b65c48f9fd69840748987bbd7db7571c, type: 3}
    - time: 5.1
      value: {fileID: 21300000, guid: a1da8522c66714cad8608d53b62ab7be, type: 3}
    - time: 5.133333
      value: {fileID: 21300000, guid: 15efa92df64644e1ab2a6ac1d5a1e680, type: 3}
    - time: 5.1666665
      value: {fileID: 21300000, guid: 1d3fe651738fb4d5eb763785c1d5f038, type: 3}
    - time: 5.2
      value: {fileID: 21300000, guid: 2399e6a8f4942495883f1223b315e6fa, type: 3}
    - time: 5.233333
      value: {fileID: 21300000, guid: 1b2fc23db5b8a4e05bfb81076eaf2189, type: 3}
    - time: 5.266667
      value: {fileID: 21300000, guid: a51c53d90e8c94497a9fd4f0a11f8937, type: 3}
    - time: 5.3
      value: {fileID: 21300000, guid: 98ffc8a480aa944adbceb987600db487, type: 3}
    - time: 5.3333335
      value: {fileID: 21300000, guid: 26a830bf6732a49b1a5a9675426edeb4, type: 3}
    - time: 5.366667
      value: {fileID: 21300000, guid: 9839ad386f6a94877afc67cbfbbfe5e0, type: 3}
    - time: 5.4
      value: {fileID: 21300000, guid: 5805b837c281e4833beaeacc535d5105, type: 3}
    - time: 5.4333334
      value: {fileID: 21300000, guid: b84bdb9e8f61e491e8c28fa0fe0c6027, type: 3}
    - time: 5.4666667
      value: {fileID: 21300000, guid: e01dad2da13fb44df9f17b04e7f06393, type: 3}
    - time: 5.5
      value: {fileID: 21300000, guid: dc78fc9556fe148a4a4f036611c49f2d, type: 3}
    - time: 5.5333333
      value: {fileID: 21300000, guid: 0a7100e21fce242d58b98aecc045fdcd, type: 3}
    - time: 5.5666666
      value: {fileID: 21300000, guid: 7b5c43712f695404190a3f9113060224, type: 3}
    - time: 5.6
      value: {fileID: 21300000, guid: 641f70375e32a4809a7a80b88c91c56b, type: 3}
    - time: 5.633333
      value: {fileID: 21300000, guid: 41d513667a7e54ce5b38c82292ff41d8, type: 3}
    - time: 5.6666665
      value: {fileID: 21300000, guid: 85c439a398da4448c9886c85c3c1c72f, type: 3}
    - time: 5.7
      value: {fileID: 21300000, guid: e0de88b67fffc41eb8aee6c47f53ffc2, type: 3}
    - time: 5.733333
      value: {fileID: 21300000, guid: 54f681667b9b24095979b7c0504a0d29, type: 3}
    - time: 5.766667
      value: {fileID: 21300000, guid: 335b1674d540744958c464401b9d547b, type: 3}
    - time: 5.8
      value: {fileID: 21300000, guid: 42f6075861b3f4527a5aafab27968c45, type: 3}
    - time: 5.8333335
      value: {fileID: 21300000, guid: acb94ba23d0e7472ab9544c6a81681ea, type: 3}
    - time: 5.866667
      value: {fileID: 21300000, guid: f9af0014ad8994b8cb69fcd6658105a0, type: 3}
    - time: 5.9
      value: {fileID: 21300000, guid: 14c04fdf9d38b4fc190961a979cf2b1d, type: 3}
    - time: 5.9333334
      value: {fileID: 21300000, guid: 936c3d4df7f424a8e9dea13b1c0159af, type: 3}
    - time: 5.9666667
      value: {fileID: 21300000, guid: 5624729218ac24632990a6bc1f6ce846, type: 3}
    - time: 6
      value: {fileID: 21300000, guid: 9bcea1a6c1e9045cbb9a168fc279cb51, type: 3}
    - time: 6.0333333
      value: {fileID: 21300000, guid: 9669031888da94cafb9340f24cea0d36, type: 3}
    - time: 6.0666666
      value: {fileID: 21300000, guid: b7b3dfe47e31347bb9442d8bd6ea580d, type: 3}
    - time: 6.1
      value: {fileID: 21300000, guid: 51290659c9f59429ab009e7dedba2213, type: 3}
    - time: 6.133333
      value: {fileID: 21300000, guid: 78bb8cf3ffa3f422186a1c5d032d15dc, type: 3}
    - time: 6.1666665
      value: {fileID: 21300000, guid: 280eff92470f64bc0bcf3419d479a328, type: 3}
    - time: 6.2
      value: {fileID: 21300000, guid: e8891471f672542ef985ad48b3f10400, type: 3}
    - time: 6.233333
      value: {fileID: 21300000, guid: 0939a5d7cbf6a496889397f60c113b14, type: 3}
    - time: 6.266667
      value: {fileID: 21300000, guid: ef2796aa6b84444698a77e4873100f1e, type: 3}
    - time: 6.3
      value: {fileID: 21300000, guid: aaf4a71d830bd47908a360fb156ff9d4, type: 3}
    - time: 6.3333335
      value: {fileID: 21300000, guid: 1f3374adaaa5d40408fa947a9c9b6c7a, type: 3}
    - time: 6.366667
      value: {fileID: 21300000, guid: cf925c8e5cc0e4ec7b58a21408eb118c, type: 3}
    - time: 6.4
      value: {fileID: 21300000, guid: 9c52596453fe24c959a6e1a2eaa6a3e9, type: 3}
    - time: 6.4333334
      value: {fileID: 21300000, guid: 25ed7b9e58a794f4fa54b1b469dcf1fc, type: 3}
    - time: 6.4666667
      value: {fileID: 21300000, guid: dfff2cdd5c2e94226b304625eced5f9d, type: 3}
    - time: 6.5
      value: {fileID: 21300000, guid: 3d34fe968573848cbbe3c683cab9890e, type: 3}
    - time: 6.5333333
      value: {fileID: 21300000, guid: c21efa5f227fd4885890a4b5f2fa5e3c, type: 3}
    - time: 6.5666666
      value: {fileID: 21300000, guid: 33fb47c9f5e7b43a583f55ec5d0bb2f8, type: 3}
    - time: 6.6
      value: {fileID: 21300000, guid: 5ea6383fd1d154a05abf00846b4e9dbd, type: 3}
    - time: 6.633333
      value: {fileID: 21300000, guid: e6f3edf5b825d4e4f8114532b038e2b9, type: 3}
    - time: 6.6666665
      value: {fileID: 21300000, guid: 182c700a9b4404caa809611d1cd99713, type: 3}
    - time: 6.7
      value: {fileID: 21300000, guid: a9c3eedee22294aa5bf7d0134311f4b5, type: 3}
    - time: 6.733333
      value: {fileID: 21300000, guid: 4f851333b084a498882b54480cb3887d, type: 3}
    - time: 6.766667
      value: {fileID: 21300000, guid: bbb538543f1f94fc39572828f970e740, type: 3}
    - time: 6.8
      value: {fileID: 21300000, guid: da57e059c9ce54062a92b8f6bf3bb47a, type: 3}
    - time: 6.8333335
      value: {fileID: 21300000, guid: 50d787da12058461e86e87b2f262b107, type: 3}
    - time: 6.866667
      value: {fileID: 21300000, guid: c045de867db084cb587354d14ca36517, type: 3}
    - time: 6.9
      value: {fileID: 21300000, guid: 77391161c3aa149e6bed2533d82a7544, type: 3}
    - time: 6.9333334
      value: {fileID: 21300000, guid: e686523c31bb840a6bee383655027480, type: 3}
    - time: 6.9666667
      value: {fileID: 21300000, guid: f12987a11a64a4eb688d4b4260293b72, type: 3}
    - time: 7
      value: {fileID: 21300000, guid: 6f5b4ca3958f14e8ea3636018fa89c8b, type: 3}
    - time: 7.0333333
      value: {fileID: 21300000, guid: f991e9dce3419430baa809aed570d2f7, type: 3}
    - time: 7.0666666
      value: {fileID: 21300000, guid: 322aa351a9700451c90f357ca9b81e2d, type: 3}
    - time: 7.1
      value: {fileID: 21300000, guid: d5f33380c97444daa993e1ec4275a816, type: 3}
    - time: 7.133333
      value: {fileID: 21300000, guid: 849477b9ad7fe417b9af95fbb8b9f605, type: 3}
    - time: 7.1666665
      value: {fileID: 21300000, guid: 4bf21807413844031ad81a2af45a13da, type: 3}
    - time: 7.2
      value: {fileID: 21300000, guid: 4a19b719a58664faa9a352746f5ca83f, type: 3}
    - time: 7.233333
      value: {fileID: 21300000, guid: 162f8fad7711c43eea197c7cc646fc19, type: 3}
    - time: 7.266667
      value: {fileID: 21300000, guid: 43d989e149ac944c996b0973797ac1ff, type: 3}
    - time: 7.3
      value: {fileID: 21300000, guid: 5e60af40e57d94a299f49ee7c6cb5cf5, type: 3}
    - time: 7.3333335
      value: {fileID: 21300000, guid: d54ea319f486345d2a0dde1047cf2357, type: 3}
    - time: 7.366667
      value: {fileID: 21300000, guid: c75bc5cf9f81e4758b29684cd3ed3639, type: 3}
    - time: 7.4
      value: {fileID: 21300000, guid: 8fdfe2fc71c7b493e86e82a8560ec356, type: 3}
    - time: 7.4333334
      value: {fileID: 21300000, guid: a0112fc01972a420d960dbfd0d27fbca, type: 3}
    - time: 7.4666667
      value: {fileID: 21300000, guid: 2527ef6bf6f3b4cd79cceed20c693640, type: 3}
    - time: 7.5
      value: {fileID: 21300000, guid: cd9923ccb1c1c42d58a261a271f77e53, type: 3}
    - time: 7.5333333
      value: {fileID: 21300000, guid: 2030289cc4d734fa0befd6e18c83d08d, type: 3}
    - time: 7.5666666
      value: {fileID: 21300000, guid: f0555a8a855c246d98fa508685e92665, type: 3}
    - time: 7.6
      value: {fileID: 21300000, guid: 7ee0b00ffadaf4007bd4b080d21bda32, type: 3}
    - time: 7.633333
      value: {fileID: 21300000, guid: 7e359160005e6454f9674d834ae62560, type: 3}
    - time: 7.6666665
      value: {fileID: 21300000, guid: babbe6871ec034ee5a0e1da8f3b6cc2f, type: 3}
    - time: 7.7
      value: {fileID: 21300000, guid: 44626d514151a4d449454a64a375a646, type: 3}
    - time: 7.733333
      value: {fileID: 21300000, guid: d0cb4e1bbb4844092af22d4967d21cd9, type: 3}
    - time: 7.766667
      value: {fileID: 21300000, guid: 2da424d1632f4470fbbe9b96b0e118ce, type: 3}
    - time: 7.8
      value: {fileID: 21300000, guid: edfb3ca99a52d420fb1e5d1988d520fc, type: 3}
    - time: 7.8333335
      value: {fileID: 21300000, guid: 64e6921bd52174d57abfc503f6bda1b3, type: 3}
    - time: 7.866667
      value: {fileID: 21300000, guid: 1876b62dfe4ff43038e334d6de8cba1d, type: 3}
    - time: 7.9
      value: {fileID: 21300000, guid: 9b01a2f7283ec40dca1eeb8fa94d4587, type: 3}
    - time: 7.9333334
      value: {fileID: 21300000, guid: 623986d6b858b4bf99ff48c9ac2f6f8a, type: 3}
    - time: 7.9666667
      value: {fileID: 21300000, guid: b3fc4ebca1a194d8e9d6e1166666114b, type: 3}
    - time: 8
      value: {fileID: 21300000, guid: 5540f27bf7ea84fc19d2f66809e80ed5, type: 3}
    - time: 8.033334
      value: {fileID: 21300000, guid: 9f90ef4e387e14308b6a67a4657a5fbe, type: 3}
    - time: 8.066667
      value: {fileID: 21300000, guid: 16e59512c78e14fd99da118d2b68d2da, type: 3}
    - time: 8.1
      value: {fileID: 21300000, guid: c878dce7c19b2409aa29a0385b5f84d4, type: 3}
    - time: 8.133333
      value: {fileID: 21300000, guid: c4e894d0aadea4393a363476ba2fafbb, type: 3}
    - time: 8.166667
      value: {fileID: 21300000, guid: 3516b901c3a984b5ab7282d91c91748a, type: 3}
    - time: 8.2
      value: {fileID: 21300000, guid: 3fc421a9307e0403eb6e1cfbc3503d0f, type: 3}
    - time: 8.233334
      value: {fileID: 21300000, guid: 4d6bcd0f5859b4cefb300a18491da833, type: 3}
    - time: 8.266666
      value: {fileID: 21300000, guid: 74d40d5d932f540e090a9fe84bbbc4c1, type: 3}
    - time: 8.3
      value: {fileID: 21300000, guid: 084a0bc9fb6224c0380460ad92126f94, type: 3}
    - time: 8.333333
      value: {fileID: 21300000, guid: da582de7548f64347baf26e380136ad4, type: 3}
    - time: 8.366667
      value: {fileID: 21300000, guid: badfdeb30199d4a799bdccaa0a41283f, type: 3}
    - time: 8.4
      value: {fileID: 21300000, guid: 29b1a213d6e954f6a8e2f92407d684ea, type: 3}
    - time: 8.433333
      value: {fileID: 21300000, guid: 65e953ee7cf664e399a4309ab051a99b, type: 3}
    - time: 8.466666
      value: {fileID: 21300000, guid: c551b389969194073b770ad3b501d6ad, type: 3}
    - time: 8.5
      value: {fileID: 21300000, guid: 00189924620954dcc8f05956caa29e96, type: 3}
    - time: 8.533334
      value: {fileID: 21300000, guid: 7822b6d3d9f534fe0b0cd2623f115ec3, type: 3}
    - time: 8.566667
      value: {fileID: 21300000, guid: a426db625eed749559da4ab2459d1975, type: 3}
    - time: 8.6
      value: {fileID: 21300000, guid: a192d73802c154de0a2977b64f395c61, type: 3}
    - time: 8.633333
      value: {fileID: 21300000, guid: 47838735cdda647689f138b1c79193c0, type: 3}
    - time: 8.666667
      value: {fileID: 21300000, guid: 38aa6d7d3056844bcbd0a657bc711936, type: 3}
    - time: 8.7
      value: {fileID: 21300000, guid: 255e12b7b24884a80aacb0d422f2b53b, type: 3}
    - time: 8.733334
      value: {fileID: 21300000, guid: 5b52a65cb398943d0a8d720dd6260ae8, type: 3}
    - time: 8.766666
      value: {fileID: 21300000, guid: 5c933e48bf30a49078ac53ecf091bf6a, type: 3}
    - time: 8.8
      value: {fileID: 21300000, guid: 7a763913cb73b472ab86c554c20a2ffb, type: 3}
    - time: 8.833333
      value: {fileID: 21300000, guid: b52f86e0eb80d4de5ba15c8792ff7d96, type: 3}
    - time: 8.866667
      value: {fileID: 21300000, guid: 07d70a3d989b249228d609274df3c735, type: 3}
    - time: 8.9
      value: {fileID: 21300000, guid: 7c5c639bccd714af3b887af91106efb5, type: 3}
    - time: 8.933333
      value: {fileID: 21300000, guid: cff742a37a443490382831c3cd9a4613, type: 3}
    - time: 8.966666
      value: {fileID: 21300000, guid: b3e7bfcc816194fd6b0821462467adb0, type: 3}
    - time: 9
      value: {fileID: 21300000, guid: 8f7802dca0f704ab19cee10a6e8f51a5, type: 3}
    - time: 9.033334
      value: {fileID: 21300000, guid: 2f0939d4560d347f196d69e09002f1f7, type: 3}
    - time: 9.066667
      value: {fileID: 21300000, guid: 647c9ccfab16c4a52995166c031a78dc, type: 3}
    - time: 9.1
      value: {fileID: 21300000, guid: 1460b3e0bbff949898d3cc3eb1d1e8b2, type: 3}
    - time: 9.133333
      value: {fileID: 21300000, guid: ba292dc331dc843c5a66a1615b58caa1, type: 3}
    - time: 9.166667
      value: {fileID: 21300000, guid: e169f3b45d84043c98d5c15d2dd704ab, type: 3}
    - time: 9.2
      value: {fileID: 21300000, guid: c128f4ccdd6e2442490ccfa4a65d1afe, type: 3}
    - time: 9.233334
      value: {fileID: 21300000, guid: 71aecae30c43e4e5abd4795932800a4a, type: 3}
    - time: 9.266666
      value: {fileID: 21300000, guid: 21fa58319cedf457fb42a84d1eae0f9a, type: 3}
    - time: 9.3
      value: {fileID: 21300000, guid: b16547f9744714a64a4c9ae81963039e, type: 3}
    - time: 9.333333
      value: {fileID: 21300000, guid: 35800bd403fbc45a68a58b13a6fb0c65, type: 3}
    - time: 9.366667
      value: {fileID: 21300000, guid: 3e62914951a4943dab2814ecf0408dfd, type: 3}
    - time: 9.4
      value: {fileID: 21300000, guid: 03574ef3915804780aa6a48d6ea3ff2d, type: 3}
    - time: 9.433333
      value: {fileID: 21300000, guid: 70ff829860c574cc7bc71bc3c866e9b1, type: 3}
    - time: 9.466666
      value: {fileID: 21300000, guid: 8042350c12f2c48ff838be4eb781eb85, type: 3}
    - time: 9.5
      value: {fileID: 21300000, guid: 3ebd84c7c9c5a4305946e4f809ab34fd, type: 3}
    - time: 9.533334
      value: {fileID: 21300000, guid: 36f28c0d349394841a76ab1ac3483568, type: 3}
    - time: 9.566667
      value: {fileID: 21300000, guid: d468bb5ecc6b644acb95e28b44939079, type: 3}
    - time: 9.6
      value: {fileID: 21300000, guid: 375f07bfb07ab4deaa527ab782487c30, type: 3}
    - time: 9.633333
      value: {fileID: 21300000, guid: eb293686aba114228aa873c050881880, type: 3}
    - time: 9.666667
      value: {fileID: 21300000, guid: fa002e642f33a4929b7e0e2777797156, type: 3}
    - time: 9.7
      value: {fileID: 21300000, guid: 542fcd3d7198342cb807de54cdf029f4, type: 3}
    - time: 9.733334
      value: {fileID: 21300000, guid: bdf7da93bec5e4738939bfac4e551017, type: 3}
    - time: 9.766666
      value: {fileID: 21300000, guid: b46d1cf7346014b8f8e4887e3dc4a13e, type: 3}
    - time: 9.8
      value: {fileID: 21300000, guid: 641ae494c073541689260e1ec5362f81, type: 3}
    - time: 9.833333
      value: {fileID: 21300000, guid: e232167703bc142ecaee3789d959527f, type: 3}
    - time: 9.866667
      value: {fileID: 21300000, guid: b6d66cd7645364074adf0211e9236496, type: 3}
    - time: 9.9
      value: {fileID: 21300000, guid: 1f9975a774afa4687b4473014580c8d8, type: 3}
    - time: 9.933333
      value: {fileID: 21300000, guid: 1a97a0c35c70d40ceb573223e9f999a9, type: 3}
    - time: 9.966666
      value: {fileID: 21300000, guid: 8f31ec1673ba24d0d9409acaeb98275a, type: 3}
    attribute: m_Sprite
    path: 
    classID: 114
    script: {fileID: 11500000, guid: fe87c0e1cc204ed48ad3b37840f39efc, type: 3}
  m_SampleRate: 30
  m_WrapMode: 0
  m_Bounds:
    m_Center: {x: 0, y: 0, z: 0}
    m_Extent: {x: 0, y: 0, z: 0}
  m_ClipBindingConstant:
    genericBindings:
    - serializedVersion: 2
      path: 0
      attribute: 2015549526
      script: {fileID: 11500000, guid: fe87c0e1cc204ed48ad3b37840f39efc, type: 3}
      typeID: 114
      customType: 0
      isPPtrCurve: 1
    pptrCurveMapping:
    - {fileID: 21300000, guid: 20141bfe56e834b77afa20ec647b03a3, type: 3}
    - {fileID: 21300000, guid: 7b026a48e08a1449387b8f291db533e8, type: 3}
    - {fileID: 21300000, guid: cff572c08ace44abda3a104470c1767e, type: 3}
    - {fileID: 21300000, guid: a3d9d5e89709a4634bedf07cc747a66b, type: 3}
    - {fileID: 21300000, guid: e665616da46064f81b6979ae99813357, type: 3}
    - {fileID: 21300000, guid: 280b14b05b41f4541afd0695db771204, type: 3}
    - {fileID: 21300000, guid: 30180a2c6b8ca46958097f208be4edc3, type: 3}
    - {fileID: 21300000, guid: 65073b05a4a5745139672e7b650137ff, type: 3}
    - {fileID: 21300000, guid: 4587254db5477444ea5cc5386c92056f, type: 3}
    - {fileID: 21300000, guid: f488be1f6961542d9bbbf7a3e0f16b7a, type: 3}
    - {fileID: 21300000, guid: f3533b9d9c71e41d78e9aa883256926b, type: 3}
    - {fileID: 21300000, guid: b21fef77c0e62493d8672caac43e461d, type: 3}
    - {fileID: 21300000, guid: beeb1ea49452f4a03a1da3e17662c28d, type: 3}
    - {fileID: 21300000, guid: a2987658b8ab94ff0bc5a35e9b8cd362, type: 3}
    - {fileID: 21300000, guid: 60ff1378ea65d41499f73f7fe47e93bf, type: 3}
    - {fileID: 21300000, guid: cf313da7356734a308598cae5437a81d, type: 3}
    - {fileID: 21300000, guid: c971d3c4c38244e8b921ee8850f7b923, type: 3}
    - {fileID: 21300000, guid: fec9b47e8722549728ceccfeb7e768c5, type: 3}
    - {fileID: 21300000, guid: f9365f6e664cc4a75be93cc4f79436f8, type: 3}
    - {fileID: 21300000, guid: b782eb6fb4bc742cfb84b373fa85a355, type: 3}
    - {fileID: 21300000, guid: 4fd7c1a8effb1478498bff648a61c9ab, type: 3}
    - {fileID: 21300000, guid: 9a9aac53259b64ac3bc910b2f925ff42, type: 3}
    - {fileID: 21300000, guid: ea51acd382a8f41a3876fc8fbff488f9, type: 3}
    - {fileID: 21300000, guid: e87e64e7c03de4a71b3360b9fb0eba95, type: 3}
    - {fileID: 21300000, guid: 1db1c629176c345db8c23abf35a176ef, type: 3}
    - {fileID: 21300000, guid: ca1d51b647e6d4191b31b6c61b509835, type: 3}
    - {fileID: 21300000, guid: 639032322cdbb4e11bd208d804699f0c, type: 3}
    - {fileID: 21300000, guid: f165af56525b64846ae4c2796e31b5af, type: 3}
    - {fileID: 21300000, guid: c6836c29cae51409ab59ee9235d5952d, type: 3}
    - {fileID: 21300000, guid: e231f68a329a341dca91bd003b4a8168, type: 3}
    - {fileID: 21300000, guid: 71e444861fdf743e3b876ee219cbfa22, type: 3}
    - {fileID: 21300000, guid: b28c642b7cb7a488eb24b616c9d8419c, type: 3}
    - {fileID: 21300000, guid: a6ddf2c99d4e2490ea48f2dbe6433352, type: 3}
    - {fileID: 21300000, guid: 169d7db2292354be5b7f2a1cd83e7fbd, type: 3}
    - {fileID: 21300000, guid: eb4593f43dc7747a1add67a18cee5fee, type: 3}
    - {fileID: 21300000, guid: b6a7f9987241540e3b052283dc1f1e74, type: 3}
    - {fileID: 21300000, guid: 223d6c181cfae42ccb17d5e6c7d28ffb, type: 3}
    - {fileID: 21300000, guid: e246a481ea05946eda058c2b6a0582a0, type: 3}
    - {fileID: 21300000, guid: 115b14cf0d95540439d40739de1025d5, type: 3}
    - {fileID: 21300000, guid: 9db38e10dcaa14312aec60e6e358210e, type: 3}
    - {fileID: 21300000, guid: c4a36be61104441c1a64145ccad26dbf, type: 3}
    - {fileID: 21300000, guid: 5d5fccc89193d449d87836e38707d946, type: 3}
    - {fileID: 21300000, guid: 61ba82fb337964275b0c47aade0c43b9, type: 3}
    - {fileID: 21300000, guid: 0ee839f23f7544260b27b6c1802fccdb, type: 3}
    - {fileID: 21300000, guid: 9384503dd0e024f03bec75fb61b4b27e, type: 3}
    - {fileID: 21300000, guid: 2385e2a623c6f471bb6f3ede3799bf6b, type: 3}
    - {fileID: 21300000, guid: bd05525b5da1144f588de62846d614aa, type: 3}
    - {fileID: 21300000, guid: 5f50d58e419a649f3a4982b1e9ee386e, type: 3}
    - {fileID: 21300000, guid: aa60e4b6306114425bc4e15146955cf9, type: 3}
    - {fileID: 21300000, guid: 86fef7a77bfcb494bac367227ff1032a, type: 3}
    - {fileID: 21300000, guid: ebafd999bee114a32ab65e5ff3bd9f2d, type: 3}
    - {fileID: 21300000, guid: 7b36f2c8489494cff9f439f279af652e, type: 3}
    - {fileID: 21300000, guid: a8f28aca707064fb98d668a604106fe1, type: 3}
    - {fileID: 21300000, guid: f1c0dae2ae1cf449faf77502d159dde2, type: 3}
    - {fileID: 21300000, guid: a04162dce185b44f4af10127d2f3aa21, type: 3}
    - {fileID: 21300000, guid: 74848c2dbfe21426ca41b5e3b45b61fd, type: 3}
    - {fileID: 21300000, guid: a832752c8c2ca4228ab53cc9d07a6dec, type: 3}
    - {fileID: 21300000, guid: d56e91f7009d6436cbe063e4ddcb161b, type: 3}
    - {fileID: 21300000, guid: 769d789e2c2424e6585a97924844a1f6, type: 3}
    - {fileID: 21300000, guid: 500c5cc426fa14695a23cdb4edf34502, type: 3}
    - {fileID: 21300000, guid: 4c3431aceeca44d3fad7fc609370faa9, type: 3}
    - {fileID: 21300000, guid: 35ae59d41b6304d738d41cd4f18c7e0e, type: 3}
    - {fileID: 21300000, guid: d9cf12599c61d41dfa1cbe7c06230b1b, type: 3}
    - {fileID: 21300000, guid: 657f1e6803c4440dcae669088e373670, type: 3}
    - {fileID: 21300000, guid: f8611157c57b448e49a64242357b44e4, type: 3}
    - {fileID: 21300000, guid: 2bb7b7763aa474a798b2ad1109d43791, type: 3}
    - {fileID: 21300000, guid: 5e0c4cb23d71c4bbb8a1784434fe9908, type: 3}
    - {fileID: 21300000, guid: 75030c9a1641e4dfe8b4f3950a7311e1, type: 3}
    - {fileID: 21300000, guid: fde9f6eda0c7c40a59d0dc18300c6cfc, type: 3}
    - {fileID: 21300000, guid: ab66ee9e740b248d89d03d5e322c7055, type: 3}
    - {fileID: 21300000, guid: c2e051990e5524579b956e0777329948, type: 3}
    - {fileID: 21300000, guid: 3d05bc59d687c4b808c9320d0d0526cc, type: 3}
    - {fileID: 21300000, guid: 0021db550594c4ab48705b17c95527c4, type: 3}
    - {fileID: 21300000, guid: 406291b3022984afc9128bd950bf35c3, type: 3}
    - {fileID: 21300000, guid: 0e1db3f24cf06414589297c2ec2b1b28, type: 3}
    - {fileID: 21300000, guid: 2c0704b66b5084fd9a961c2c45cfffdf, type: 3}
    - {fileID: 21300000, guid: 4d8d63cb7f93a42b8a56495230a6c7d0, type: 3}
    - {fileID: 21300000, guid: a614fd22beb984f739647cc73299d3ed, type: 3}
    - {fileID: 21300000, guid: cff3eccb8f7e9450099acfca2049ca84, type: 3}
    - {fileID: 21300000, guid: 4e5a271b3a20d406ab1405cdfc198f18, type: 3}
    - {fileID: 21300000, guid: 9f2a001b363c94036a2ca93075654a60, type: 3}
    - {fileID: 21300000, guid: 8f982545ff2af4a1cb5d22847fcdd28a, type: 3}
    - {fileID: 21300000, guid: 3d9cc368a9f8d436d92fa2a3c258d9e3, type: 3}
    - {fileID: 21300000, guid: c832b9222d8f047dda744092195317b6, type: 3}
    - {fileID: 21300000, guid: e59580c91b25e4a8592b054658a8863b, type: 3}
    - {fileID: 21300000, guid: abc553ce7063e45d4a84965370bc0dda, type: 3}
    - {fileID: 21300000, guid: 58ff8383cc0054157b02a7c1700796e3, type: 3}
    - {fileID: 21300000, guid: bd061448f9dfa403eb49a69b5f628473, type: 3}
    - {fileID: 21300000, guid: e49bd358253da4b9babedf298ce3129f, type: 3}
    - {fileID: 21300000, guid: 4d41c4f8f76d84d09a4dff07e6a64b75, type: 3}
    - {fileID: 21300000, guid: c3e2121dbb43a4e6a8d37727c8d353cc, type: 3}
    - {fileID: 21300000, guid: 4495fc9bdcf7a414994d8ebd01c7f088, type: 3}
    - {fileID: 21300000, guid: 6b7d092b0259c44f3983acc07ba29b93, type: 3}
    - {fileID: 21300000, guid: 3353fbe39cbdf4dbb955bd35a203b874, type: 3}
    - {fileID: 21300000, guid: 7787810d0a0a64053ab1fa7c6b4db4dd, type: 3}
    - {fileID: 21300000, guid: afbe824b2571b48e49b029ace91c55d3, type: 3}
    - {fileID: 21300000, guid: 1271b3e19a6324de8a0f1541e8abc2ab, type: 3}
    - {fileID: 21300000, guid: 00232cdf045cb4879bda8c22ad8b399d, type: 3}
    - {fileID: 21300000, guid: 879a8e1e756fe45009377b80730811bb, type: 3}
    - {fileID: 21300000, guid: 350acc36337b6482b8ec7a135bb96002, type: 3}
    - {fileID: 21300000, guid: 2e1e64323c29149159addf458c6b8464, type: 3}
    - {fileID: 21300000, guid: dd4ead2df0eed4541bd380e8092ec727, type: 3}
    - {fileID: 21300000, guid: e3042994dd8d74b9885caf92db3ace63, type: 3}
    - {fileID: 21300000, guid: 2818318f2f5514994994f04cac7d19b6, type: 3}
    - {fileID: 21300000, guid: 9defb2c319d6542d3a1b05b52a4f8b9b, type: 3}
    - {fileID: 21300000, guid: 73ed6a7bf656f4908877c94aeb9f1b6e, type: 3}
    - {fileID: 21300000, guid: 7be40eb2158264cb9b78a022372a8201, type: 3}
    - {fileID: 21300000, guid: 5051a08dc4dc64fc0be399823ad79e9c, type: 3}
    - {fileID: 21300000, guid: a4b1dd68de930481ab4591561ba1de70, type: 3}
    - {fileID: 21300000, guid: ea72f6b82592a4d169ebd89004146392, type: 3}
    - {fileID: 21300000, guid: 0f20a6d91ecbc48d8b82bf776f0b13d1, type: 3}
    - {fileID: 21300000, guid: 5d16a4dbbaa2b42d589e6894680d927b, type: 3}
    - {fileID: 21300000, guid: 3857974ebb91649a9a2c6b76fb9ca65f, type: 3}
    - {fileID: 21300000, guid: d37778b5ea38e4000ac016cb90161b88, type: 3}
    - {fileID: 21300000, guid: ce3716d86b7934f3a8b98e29fb4c664c, type: 3}
    - {fileID: 21300000, guid: aa5b30192f84a46e38aaf31a44ae4b70, type: 3}
    - {fileID: 21300000, guid: e4e995809a19745b09abf01ea1a8876a, type: 3}
    - {fileID: 21300000, guid: fe2df139dbe08446c8162721ea68ffd0, type: 3}
    - {fileID: 21300000, guid: 9b9e38b14be264a4aadcb36b3f2bfc7d, type: 3}
    - {fileID: 21300000, guid: cda210d77743b47aeb8bfb1109f29ae1, type: 3}
    - {fileID: 21300000, guid: 3217d110cf91c4bb08079a60b6115fc7, type: 3}
    - {fileID: 21300000, guid: 8bb2f10ca495b4b6390cb4614cd17c4f, type: 3}
    - {fileID: 21300000, guid: 321beb7f8ee6b450dad57e96d2c89c42, type: 3}
    - {fileID: 21300000, guid: 32ffeabf95cc4462896b2eaf2dbee55e, type: 3}
    - {fileID: 21300000, guid: a2c16f75021fd4bc284d890d033a6054, type: 3}
    - {fileID: 21300000, guid: 9bbac927f80e746c69cef22e05b75643, type: 3}
    - {fileID: 21300000, guid: 183a2fa560b214186a8737578a42cf8b, type: 3}
    - {fileID: 21300000, guid: 4fa81014537274cb48541e0627cd8b9a, type: 3}
    - {fileID: 21300000, guid: 4dfbddca9e9c747f48ebc4f87e8e47ea, type: 3}
    - {fileID: 21300000, guid: 2bea516f407d34678ae88a3c87923adb, type: 3}
    - {fileID: 21300000, guid: e32765a86f63c43d0a25a51acddd7e2e, type: 3}
    - {fileID: 21300000, guid: 83a73e66f4b4043cd90a850868ba88fb, type: 3}
    - {fileID: 21300000, guid: a30bd34efe0384cd18bfb70c082f869d, type: 3}
    - {fileID: 21300000, guid: c23136386bdfc4e4094a31d1bdd7fee3, type: 3}
    - {fileID: 21300000, guid: e574fb95e7ed14ca4a97bdd972c1041b, type: 3}
    - {fileID: 21300000, guid: c0fd510a065fa463eb9eb44f3512458b, type: 3}
    - {fileID: 21300000, guid: 73cb6ab03db684d809ea0cfde1e95080, type: 3}
    - {fileID: 21300000, guid: 82dd3381e27404cef950c2b2cf73437c, type: 3}
    - {fileID: 21300000, guid: 1e6e78f26ced24764a7702486ee4da46, type: 3}
    - {fileID: 21300000, guid: 582d4c01739ab4f27b227deff0e0a6e8, type: 3}
    - {fileID: 21300000, guid: b329f64bbef1d4fc088598b629fbf957, type: 3}
    - {fileID: 21300000, guid: c4804ef9a7e914d2eabdfa00260b2565, type: 3}
    - {fileID: 21300000, guid: 9d3ebd8bac00b4c2bbfb86cd94c24fe4, type: 3}
    - {fileID: 21300000, guid: 6fcf5eb95938b464fa1c77895d6eada0, type: 3}
    - {fileID: 21300000, guid: 9d5c92d7ca21a426385fa322e8b21830, type: 3}
    - {fileID: 21300000, guid: bc2576fa2b48f4f88aa7123a2889895d, type: 3}
    - {fileID: 21300000, guid: 9239b0ebce39c4a4e980446c8d4e5b6d, type: 3}
    - {fileID: 21300000, guid: 961571b848c5d4beb96ddfab9b743b09, type: 3}
    - {fileID: 21300000, guid: abeb79691fa4a43cc969f76fa2918161, type: 3}
    - {fileID: 21300000, guid: 47ea5f2eff770417691e0590091fd88f, type: 3}
    - {fileID: 21300000, guid: 2428f68213c354897825678b77e6eb4b, type: 3}
    - {fileID: 21300000, guid: 54766757b7b3a4a8cb9e23c6ce455380, type: 3}
    - {fileID: 21300000, guid: b65c48f9fd69840748987bbd7db7571c, type: 3}
    - {fileID: 21300000, guid: a1da8522c66714cad8608d53b62ab7be, type: 3}
    - {fileID: 21300000, guid: 15efa92df64644e1ab2a6ac1d5a1e680, type: 3}
    - {fileID: 21300000, guid: 1d3fe651738fb4d5eb763785c1d5f038, type: 3}
    - {fileID: 21300000, guid: 2399e6a8f4942495883f1223b315e6fa, type: 3}
    - {fileID: 21300000, guid: 1b2fc23db5b8a4e05bfb81076eaf2189, type: 3}
    - {fileID: 21300000, guid: a51c53d90e8c94497a9fd4f0a11f8937, type: 3}
    - {fileID: 21300000, guid: 98ffc8a480aa944adbceb987600db487, type: 3}
    - {fileID: 21300000, guid: 26a830bf6732a49b1a5a9675426edeb4, type: 3}
    - {fileID: 21300000, guid: 9839ad386f6a94877afc67cbfbbfe5e0, type: 3}
    - {fileID: 21300000, guid: 5805b837c281e4833beaeacc535d5105, type: 3}
    - {fileID: 21300000, guid: b84bdb9e8f61e491e8c28fa0fe0c6027, type: 3}
    - {fileID: 21300000, guid: e01dad2da13fb44df9f17b04e7f06393, type: 3}
    - {fileID: 21300000, guid: dc78fc9556fe148a4a4f036611c49f2d, type: 3}
    - {fileID: 21300000, guid: 0a7100e21fce242d58b98aecc045fdcd, type: 3}
    - {fileID: 21300000, guid: 7b5c43712f695404190a3f9113060224, type: 3}
    - {fileID: 21300000, guid: 641f70375e32a4809a7a80b88c91c56b, type: 3}
    - {fileID: 21300000, guid: 41d513667a7e54ce5b38c82292ff41d8, type: 3}
    - {fileID: 21300000, guid: 85c439a398da4448c9886c85c3c1c72f, type: 3}
    - {fileID: 21300000, guid: e0de88b67fffc41eb8aee6c47f53ffc2, type: 3}
    - {fileID: 21300000, guid: 54f681667b9b24095979b7c0504a0d29, type: 3}
    - {fileID: 21300000, guid: 335b1674d540744958c464401b9d547b, type: 3}
    - {fileID: 21300000, guid: 42f6075861b3f4527a5aafab27968c45, type: 3}
    - {fileID: 21300000, guid: acb94ba23d0e7472ab9544c6a81681ea, type: 3}
    - {fileID: 21300000, guid: f9af0014ad8994b8cb69fcd6658105a0, type: 3}
    - {fileID: 21300000, guid: 14c04fdf9d38b4fc190961a979cf2b1d, type: 3}
    - {fileID: 21300000, guid: 936c3d4df7f424a8e9dea13b1c0159af, type: 3}
    - {fileID: 21300000, guid: 5624729218ac24632990a6bc1f6ce846, type: 3}
    - {fileID: 21300000, guid: 9bcea1a6c1e9045cbb9a168fc279cb51, type: 3}
    - {fileID: 21300000, guid: 9669031888da94cafb9340f24cea0d36, type: 3}
    - {fileID: 21300000, guid: b7b3dfe47e31347bb9442d8bd6ea580d, type: 3}
    - {fileID: 21300000, guid: 51290659c9f59429ab009e7dedba2213, type: 3}
    - {fileID: 21300000, guid: 78bb8cf3ffa3f422186a1c5d032d15dc, type: 3}
    - {fileID: 21300000, guid: 280eff92470f64bc0bcf3419d479a328, type: 3}
    - {fileID: 21300000, guid: e8891471f672542ef985ad48b3f10400, type: 3}
    - {fileID: 21300000, guid: 0939a5d7cbf6a496889397f60c113b14, type: 3}
    - {fileID: 21300000, guid: ef2796aa6b84444698a77e4873100f1e, type: 3}
    - {fileID: 21300000, guid: aaf4a71d830bd47908a360fb156ff9d4, type: 3}
    - {fileID: 21300000, guid: 1f3374adaaa5d40408fa947a9c9b6c7a, type: 3}
    - {fileID: 21300000, guid: cf925c8e5cc0e4ec7b58a21408eb118c, type: 3}
    - {fileID: 21300000, guid: 9c52596453fe24c959a6e1a2eaa6a3e9, type: 3}
    - {fileID: 21300000, guid: 25ed7b9e58a794f4fa54b1b469dcf1fc, type: 3}
    - {fileID: 21300000, guid: dfff2cdd5c2e94226b304625eced5f9d, type: 3}
    - {fileID: 21300000, guid: 3d34fe968573848cbbe3c683cab9890e, type: 3}
    - {fileID: 21300000, guid: c21efa5f227fd4885890a4b5f2fa5e3c, type: 3}
    - {fileID: 21300000, guid: 33fb47c9f5e7b43a583f55ec5d0bb2f8, type: 3}
    - {fileID: 21300000, guid: 5ea6383fd1d154a05abf00846b4e9dbd, type: 3}
    - {fileID: 21300000, guid: e6f3edf5b825d4e4f8114532b038e2b9, type: 3}
    - {fileID: 21300000, guid: 182c700a9b4404caa809611d1cd99713, type: 3}
    - {fileID: 21300000, guid: a9c3eedee22294aa5bf7d0134311f4b5, type: 3}
    - {fileID: 21300000, guid: 4f851333b084a498882b54480cb3887d, type: 3}
    - {fileID: 21300000, guid: bbb538543f1f94fc39572828f970e740, type: 3}
    - {fileID: 21300000, guid: da57e059c9ce54062a92b8f6bf3bb47a, type: 3}
    - {fileID: 21300000, guid: 50d787da12058461e86e87b2f262b107, type: 3}
    - {fileID: 21300000, guid: c045de867db084cb587354d14ca36517, type: 3}
    - {fileID: 21300000, guid: 77391161c3aa149e6bed2533d82a7544, type: 3}
    - {fileID: 21300000, guid: e686523c31bb840a6bee383655027480, type: 3}
    - {fileID: 21300000, guid: f12987a11a64a4eb688d4b4260293b72, type: 3}
    - {fileID: 21300000, guid: 6f5b4ca3958f14e8ea3636018fa89c8b, type: 3}
    - {fileID: 21300000, guid: f991e9dce3419430baa809aed570d2f7, type: 3}
    - {fileID: 21300000, guid: 322aa351a9700451c90f357ca9b81e2d, type: 3}
    - {fileID: 21300000, guid: d5f33380c97444daa993e1ec4275a816, type: 3}
    - {fileID: 21300000, guid: 849477b9ad7fe417b9af95fbb8b9f605, type: 3}
    - {fileID: 21300000, guid: 4bf21807413844031ad81a2af45a13da, type: 3}
    - {fileID: 21300000, guid: 4a19b719a58664faa9a352746f5ca83f, type: 3}
    - {fileID: 21300000, guid: 162f8fad7711c43eea197c7cc646fc19, type: 3}
    - {fileID: 21300000, guid: 43d989e149ac944c996b0973797ac1ff, type: 3}
    - {fileID: 21300000, guid: 5e60af40e57d94a299f49ee7c6cb5cf5, type: 3}
    - {fileID: 21300000, guid: d54ea319f486345d2a0dde1047cf2357, type: 3}
    - {fileID: 21300000, guid: c75bc5cf9f81e4758b29684cd3ed3639, type: 3}
    - {fileID: 21300000, guid: 8fdfe2fc71c7b493e86e82a8560ec356, type: 3}
    - {fileID: 21300000, guid: a0112fc01972a420d960dbfd0d27fbca, type: 3}
    - {fileID: 21300000, guid: 2527ef6bf6f3b4cd79cceed20c693640, type: 3}
    - {fileID: 21300000, guid: cd9923ccb1c1c42d58a261a271f77e53, type: 3}
    - {fileID: 21300000, guid: 2030289cc4d734fa0befd6e18c83d08d, type: 3}
    - {fileID: 21300000, guid: f0555a8a855c246d98fa508685e92665, type: 3}
    - {fileID: 21300000, guid: 7ee0b00ffadaf4007bd4b080d21bda32, type: 3}
    - {fileID: 21300000, guid: 7e359160005e6454f9674d834ae62560, type: 3}
    - {fileID: 21300000, guid: babbe6871ec034ee5a0e1da8f3b6cc2f, type: 3}
    - {fileID: 21300000, guid: 44626d514151a4d449454a64a375a646, type: 3}
    - {fileID: 21300000, guid: d0cb4e1bbb4844092af22d4967d21cd9, type: 3}
    - {fileID: 21300000, guid: 2da424d1632f4470fbbe9b96b0e118ce, type: 3}
    - {fileID: 21300000, guid: edfb3ca99a52d420fb1e5d1988d520fc, type: 3}
    - {fileID: 21300000, guid: 64e6921bd52174d57abfc503f6bda1b3, type: 3}
    - {fileID: 21300000, guid: 1876b62dfe4ff43038e334d6de8cba1d, type: 3}
    - {fileID: 21300000, guid: 9b01a2f7283ec40dca1eeb8fa94d4587, type: 3}
    - {fileID: 21300000, guid: 623986d6b858b4bf99ff48c9ac2f6f8a, type: 3}
    - {fileID: 21300000, guid: b3fc4ebca1a194d8e9d6e1166666114b, type: 3}
    - {fileID: 21300000, guid: 5540f27bf7ea84fc19d2f66809e80ed5, type: 3}
    - {fileID: 21300000, guid: 9f90ef4e387e14308b6a67a4657a5fbe, type: 3}
    - {fileID: 21300000, guid: 16e59512c78e14fd99da118d2b68d2da, type: 3}
    - {fileID: 21300000, guid: c878dce7c19b2409aa29a0385b5f84d4, type: 3}
    - {fileID: 21300000, guid: c4e894d0aadea4393a363476ba2fafbb, type: 3}
    - {fileID: 21300000, guid: 3516b901c3a984b5ab7282d91c91748a, type: 3}
    - {fileID: 21300000, guid: 3fc421a9307e0403eb6e1cfbc3503d0f, type: 3}
    - {fileID: 21300000, guid: 4d6bcd0f5859b4cefb300a18491da833, type: 3}
    - {fileID: 21300000, guid: 74d40d5d932f540e090a9fe84bbbc4c1, type: 3}
    - {fileID: 21300000, guid: 084a0bc9fb6224c0380460ad92126f94, type: 3}
    - {fileID: 21300000, guid: da582de7548f64347baf26e380136ad4, type: 3}
    - {fileID: 21300000, guid: badfdeb30199d4a799bdccaa0a41283f, type: 3}
    - {fileID: 21300000, guid: 29b1a213d6e954f6a8e2f92407d684ea, type: 3}
    - {fileID: 21300000, guid: 65e953ee7cf664e399a4309ab051a99b, type: 3}
    - {fileID: 21300000, guid: c551b389969194073b770ad3b501d6ad, type: 3}
    - {fileID: 21300000, guid: 00189924620954dcc8f05956caa29e96, type: 3}
    - {fileID: 21300000, guid: 7822b6d3d9f534fe0b0cd2623f115ec3, type: 3}
    - {fileID: 21300000, guid: a426db625eed749559da4ab2459d1975, type: 3}
    - {fileID: 21300000, guid: a192d73802c154de0a2977b64f395c61, type: 3}
    - {fileID: 21300000, guid: 47838735cdda647689f138b1c79193c0, type: 3}
    - {fileID: 21300000, guid: 38aa6d7d3056844bcbd0a657bc711936, type: 3}
    - {fileID: 21300000, guid: 255e12b7b24884a80aacb0d422f2b53b, type: 3}
    - {fileID: 21300000, guid: 5b52a65cb398943d0a8d720dd6260ae8, type: 3}
    - {fileID: 21300000, guid: 5c933e48bf30a49078ac53ecf091bf6a, type: 3}
    - {fileID: 21300000, guid: 7a763913cb73b472ab86c554c20a2ffb, type: 3}
    - {fileID: 21300000, guid: b52f86e0eb80d4de5ba15c8792ff7d96, type: 3}
    - {fileID: 21300000, guid: 07d70a3d989b249228d609274df3c735, type: 3}
    - {fileID: 21300000, guid: 7c5c639bccd714af3b887af91106efb5, type: 3}
    - {fileID: 21300000, guid: cff742a37a443490382831c3cd9a4613, type: 3}
    - {fileID: 21300000, guid: b3e7bfcc816194fd6b0821462467adb0, type: 3}
    - {fileID: 21300000, guid: 8f7802dca0f704ab19cee10a6e8f51a5, type: 3}
    - {fileID: 21300000, guid: 2f0939d4560d347f196d69e09002f1f7, type: 3}
    - {fileID: 21300000, guid: 647c9ccfab16c4a52995166c031a78dc, type: 3}
    - {fileID: 21300000, guid: 1460b3e0bbff949898d3cc3eb1d1e8b2, type: 3}
    - {fileID: 21300000, guid: ba292dc331dc843c5a66a1615b58caa1, type: 3}
    - {fileID: 21300000, guid: e169f3b45d84043c98d5c15d2dd704ab, type: 3}
    - {fileID: 21300000, guid: c128f4ccdd6e2442490ccfa4a65d1afe, type: 3}
    - {fileID: 21300000, guid: 71aecae30c43e4e5abd4795932800a4a, type: 3}
    - {fileID: 21300000, guid: 21fa58319cedf457fb42a84d1eae0f9a, type: 3}
    - {fileID: 21300000, guid: b16547f9744714a64a4c9ae81963039e, type: 3}
    - {fileID: 21300000, guid: 35800bd403fbc45a68a58b13a6fb0c65, type: 3}
    - {fileID: 21300000, guid: 3e62914951a4943dab2814ecf0408dfd, type: 3}
    - {fileID: 21300000, guid: 03574ef3915804780aa6a48d6ea3ff2d, type: 3}
    - {fileID: 21300000, guid: 70ff829860c574cc7bc71bc3c866e9b1, type: 3}
    - {fileID: 21300000, guid: 8042350c12f2c48ff838be4eb781eb85, type: 3}
    - {fileID: 21300000, guid: 3ebd84c7c9c5a4305946e4f809ab34fd, type: 3}
    - {fileID: 21300000, guid: 36f28c0d349394841a76ab1ac3483568, type: 3}
    - {fileID: 21300000, guid: d468bb5ecc6b644acb95e28b44939079, type: 3}
    - {fileID: 21300000, guid: 375f07bfb07ab4deaa527ab782487c30, type: 3}
    - {fileID: 21300000, guid: eb293686aba114228aa873c050881880, type: 3}
    - {fileID: 21300000, guid: fa002e642f33a4929b7e0e2777797156, type: 3}
    - {fileID: 21300000, guid: 542fcd3d7198342cb807de54cdf029f4, type: 3}
    - {fileID: 21300000, guid: bdf7da93bec5e4738939bfac4e551017, type: 3}
    - {fileID: 21300000, guid: b46d1cf7346014b8f8e4887e3dc4a13e, type: 3}
    - {fileID: 21300000, guid: 641ae494c073541689260e1ec5362f81, type: 3}
    - {fileID: 21300000, guid: e232167703bc142ecaee3789d959527f, type: 3}
    - {fileID: 21300000, guid: b6d66cd7645364074adf0211e9236496, type: 3}
    - {fileID: 21300000, guid: 1f9975a774afa4687b4473014580c8d8, type: 3}
    - {fileID: 21300000, guid: 1a97a0c35c70d40ceb573223e9f999a9, type: 3}
    - {fileID: 21300000, guid: 8f31ec1673ba24d0d9409acaeb98275a, type: 3}
  m_AnimationClipSettings:
    serializedVersion: 2
    m_AdditiveReferencePoseClip: {fileID: 0}
    m_AdditiveReferencePoseTime: 0
    m_StartTime: 0
    m_StopTime: 10
    m_OrientationOffsetY: 0
    m_Level: 0
    m_CycleOffset: 0
    m_HasAdditiveReferencePose: 0
    m_LoopTime: 1
    m_LoopBlend: 0
    m_LoopBlendOrientation: 0
    m_LoopBlendPositionY: 0
    m_LoopBlendPositionXZ: 0
    m_KeepOriginalOrientation: 0
    m_KeepOriginalPositionY: 1
    m_KeepOriginalPositionXZ: 0
    m_HeightFromFeet: 0
    m_Mirror: 0
  m_EditorCurves: []
  m_EulerEditorCurves: []
  m_HasGenericRootTransform: 0
  m_HasMotionFloatCurves: 0
  m_Events: []
